<svg
   width="1000"
   height="1000"
   version="1.1"
   xmlns="http://www.w3.org/2000/svg"
   xmlns:svg="http://www.w3.org/2000/svg"
   xmlns:rdf="http://www.w3.org/1999/02/22-rdf-syntax-ns#"
   xmlns:cc="http://creativecommons.org/ns#">
  <path
    id="Device"
    fill="#000000"
    fill-opacity="1"
    stroke="#ffffff"
    stroke-opacity="1"
    stroke-width="40"
    paint-order="stroke fill"
    d="m 775.1046,0 a 224.8954,224.66041 0 0 0 -224.89539,224.66041 224.8954,224.66041 0 0 0 10.39078,66.72258 l -529.962896,530.2357 0.187958,0.18776 A 104.60251,104.49321 0 0 0 0,895.50681 104.60251,104.49321 0 0 0 104.60251,1000 104.60251,104.49321 0 0 0 178.37997,969.20718 l 0.18796,0.18776 530.063,-530.3357 A 224.8954,224.66041 0 0 0 775.1046,449.3208 224.8954,224.66041 0 0 0 1000,224.66041 224.8954,224.66041 0 0 0 991.76051,164.97069 L 860.87866,295.71578 740.58577,264.36782 703.9749,138.97597 834.85675,8.2308811 A 224.8954,224.66041 0 0 0 775.1046,0 Z M 97.280335,868.33858 a 41.841004,41.797284 0 0 1 41.841005,41.79729 41.841004,41.797284 0 0 1 -41.841005,41.79728 41.841004,41.797284 0 0 1 -41.841004,-41.79728 41.841004,41.797284 0 0 1 41.841004,-41.79729 z" />
  <metadata id="License">
    <rdf:RDF>
      <cc:Work rdf:about="">
        <cc:license rdf:resource="http://creativecommons.org/licenses/by-sa/4.0/" />
      </cc:Work>
      <cc:License rdf:about="http://creativecommons.org/licenses/by-sa/4.0/">
        <cc:permits rdf:resource="http://creativecommons.org/ns#Reproduction" />
        <cc:permits rdf:resource="http://creativecommons.org/ns#Distribution" />
        <cc:requires rdf:resource="http://creativecommons.org/ns#Notice" />
        <cc:requires rdf:resource="http://creativecommons.org/ns#Attribution" />
        <cc:permits rdf:resource="http://creativecommons.org/ns#DerivativeWorks" />
        <cc:requires rdf:resource="http://creativecommons.org/ns#ShareAlike" />
      </cc:License>
    </rdf:RDF>
  </metadata>
</svg>
