<svg
   width="1000"
   height="1000"
   version="1.1"
   xmlns="http://www.w3.org/2000/svg"
   xmlns:svg="http://www.w3.org/2000/svg"
   xmlns:rdf="http://www.w3.org/1999/02/22-rdf-syntax-ns#"
   xmlns:cc="http://creativecommons.org/ns#">
  <path
     id="Star"
     fill="#ffd100"
     fill-opacity="1"
     stroke="#000000"
     stroke-width="47"
     d="M 499.4777,47.494995 386.63178,393.555 H 22.495308 l 294.592402,213.26594 0.84496,0.61147 -112.5251,345.07125 294.5924,-213.26595 294.5924,213.26595 -112.5251,-345.07125 0.84497,-0.61147 L 977.50467,393.555 H 613.36816 L 500.52225,47.494995 l -0.52228,1.602078 z"
     style="stroke-width:45;stroke-dasharray:none" />
  <metadata id="License">
    <rdf:RDF>
      <cc:Work rdf:about="">
        <cc:license rdf:resource="http://creativecommons.org/licenses/by-sa/4.0/" />
      </cc:Work>
      <cc:License rdf:about="http://creativecommons.org/licenses/by-sa/4.0/">
        <cc:permits rdf:resource="http://creativecommons.org/ns#Reproduction" />
        <cc:permits rdf:resource="http://creativecommons.org/ns#Distribution" />
        <cc:requires rdf:resource="http://creativecommons.org/ns#Notice" />
        <cc:requires rdf:resource="http://creativecommons.org/ns#Attribution" />
        <cc:permits rdf:resource="http://creativecommons.org/ns#DerivativeWorks" />
        <cc:requires rdf:resource="http://creativecommons.org/ns#ShareAlike" />
      </cc:License>
    </rdf:RDF>
  </metadata>
</svg>
