<svg
   width="1000"
   height="1150"
   version="1.1"
   xmlns="http://www.w3.org/2000/svg"
   xmlns:svg="http://www.w3.org/2000/svg"
   xmlns:rdf="http://www.w3.org/1999/02/22-rdf-syntax-ns#"
   xmlns:cc="http://creativecommons.org/ns#">
  <g id="Gender">
    <path
       id="path2"
       fill="#000000"
       fill-opacity="1"
       d="M 500,0 A 350,350 0 0 0 150,350 350,350 0 0 0 500,700 350,350 0 0 0 850,350 350,350 0 0 0 500,0 Z m 0,150 A 200,200 0 0 1 700,350 200,200 0 0 1 500,550 200,200 0 0 1 300,350 200,200 0 0 1 500,150 Z" />
    <rect
       fill="#000000"
       fill-opacity="1"
       id="rect1"
       width="450"
       height="150"
       x="275"
       y="800" />
    <rect
       fill="#000000"
       fill-opacity="1"
       id="rect2"
       width="150"
       height="525"
       x="425"
       y="550"
       style="stroke-width:1" />
    <circle
       fill="#000000"
       fill-opacity="1"
       id="path3"
       cx="500"
       cy="1075"
       r="75" />
    <circle
       fill="#000000"
       fill-opacity="1"
       id="path3-5"
       cx="275"
       cy="875"
       r="75" />
    <circle
       fill="#000000"
       fill-opacity="1"
       id="path3-2"
       cx="725"
       cy="875"
       r="75" />
  </g>
  <metadata id="License">
    <rdf:RDF>
      <cc:Work rdf:about="">
        <cc:license rdf:resource="http://creativecommons.org/licenses/by-sa/4.0/" />
      </cc:Work>
      <cc:License rdf:about="http://creativecommons.org/licenses/by-sa/4.0/">
        <cc:permits rdf:resource="http://creativecommons.org/ns#Reproduction" />
        <cc:permits rdf:resource="http://creativecommons.org/ns#Distribution" />
        <cc:requires rdf:resource="http://creativecommons.org/ns#Notice" />
        <cc:requires rdf:resource="http://creativecommons.org/ns#Attribution" />
        <cc:permits rdf:resource="http://creativecommons.org/ns#DerivativeWorks" />
        <cc:requires rdf:resource="http://creativecommons.org/ns#ShareAlike" />
      </cc:License>
    </rdf:RDF>
  </metadata>
</svg>
