<svg
   width="1000"
   height="907"
   version="1.1"
   xmlns="http://www.w3.org/2000/svg"
   xmlns:svg="http://www.w3.org/2000/svg">
  <g
     id="Era"
     transform="translate(402.82569,343.02185)">
    <path
       fill="#000000"
       fill-opacity="1"
       d="m -235.66197,221.80762 c 0.64331,-0.16523 4.10204,-0.46305 7.68609,-0.66184 9.93094,-0.55081 13.00769,-0.90482 15.95298,-1.8355 1.48537,-0.46933 4.18044,-1.00094 5.98904,-1.18127 8.50859,-0.84862 11.6831,-1.36666 15.10199,-2.46441 2.80492,-0.90061 4.4822,-1.21079 7.91966,-1.46477 3.26509,-0.24132 4.77677,-0.50842 6.0152,-1.0631 1.87224,-0.83859 4.28918,-1.42871 9.84148,-2.40312 2.79291,-0.49014 4.34526,-0.95539 5.681,-1.70275 1.42586,-0.79775 2.60114,-1.12802 5.24149,-1.47269 2.4006,-0.3134 4.37001,-0.82966 6.68356,-1.75199 1.80401,-0.71918 4.31596,-1.48208 5.58207,-1.69523 1.26611,-0.21316 3.03738,-0.76027 3.93614,-1.21582 0.89876,-0.45561 3.09599,-1.21014 4.88278,-1.67679 1.78678,-0.46664 3.9885,-1.2989 4.89273,-1.84944 0.90421,-0.55055 2.55839,-1.21559 3.67595,-1.47795 1.11755,-0.26235 2.66042,-0.62532 3.42861,-0.80662 0.76817,-0.18144 2.10319,-0.77785 2.96675,-1.32567 0.86354,-0.54781 2.36938,-1.17488 3.34633,-1.39362 0.97694,-0.21868 2.34875,-0.74917 3.04844,-1.17882 2.17231,-1.33393 3.9382,-2.09896 5.73444,-2.4843 0.95043,-0.20389 2.48259,-0.88986 3.40481,-1.52441 0.92221,-0.63455 2.57432,-1.43316 3.67132,-1.77469 1.096996,-0.34151 2.709131,-1.07059 3.582526,-1.62019 0.873374,-0.54951 2.343658,-1.24317 3.267296,-1.54134 0.923616,-0.29816 2.372558,-1.1152 3.219868,-1.81554 1.034012,-0.85468 2.143196,-1.40829 3.373354,-1.68365 1.207581,-0.2703 2.296031,-0.8069 3.190746,-1.57297 0.746866,-0.63947 1.985596,-1.38418 2.75273,-1.65488 0.767133,-0.27079 2.092973,-0.99994 2.946344,-1.62042 0.853371,-0.62049 2.278175,-1.44584 3.166262,-1.83399 0.888088,-0.38825 2.082597,-1.09966 2.654476,-1.58099 0.571882,-0.4813 1.857813,-1.23703 2.857595,-1.67932 0.999802,-0.44224 2.399778,-1.33008 3.111056,-1.97282 0.711277,-0.64275 1.446551,-1.16866 1.633921,-1.16866 0.187269,0 0.991349,-0.5999 1.786612,-1.33318 0.795246,-0.73325 2.292282,-1.70759 3.32674,-2.16517 1.034458,-0.45763 2.194045,-1.14534 2.576873,-1.52826 0.382807,-0.38293 1.353139,-1.11305 2.156288,-1.62257 0.803147,-0.50945 1.959533,-1.41964 2.569758,-2.02263 0.610225,-0.60301 1.803659,-1.56851 2.652063,-2.14559 3.344414,-2.27471 4.500676,-3.17406 8.093949,-6.2958 7.594422,-6.59788 19.155477,-17.95289 23.645208,-23.22389 5.495288,-6.45146 7.948936,-9.65389 8.6498768,-11.28956 0.3405089,-0.79458 1.1681403,-1.86358 1.8391669,-2.37557 0.6711077,-0.51196 1.5275183,-1.54473 1.903272,-2.29501 0.3756729,-0.75036 1.0344378,-1.74026 1.4638591,-2.19987 0.4294214,-0.45964 1.110014,-1.58782 1.5125205,-2.50706 0.4024458,-0.9192 1.2928648,-2.28569 1.9787471,-3.03651 0.68586223,-0.75089 1.43686318,-1.95428 1.66882124,-2.67414 0.23197832,-0.71999 0.91396946,-1.918166 1.51558086,-2.662723 0.6015912,-0.744557 1.3347367,-1.930594 1.6292393,-2.635559 0.2944419,-0.705025 1.057137,-1.859476 1.694824,-2.565474 0.6376465,-0.706028 1.2488444,-1.701138 1.358125,-2.211341 0.4391902,-2.049738 1.2179572,-3.704317 2.1756835,-4.622065 0.607874,-0.582557 1.2169237,-1.682799 1.5324027,-2.768324 0.294117,-1.011994 1.00426,-2.334446 1.620504,-3.017678 0.695286,-0.770892 1.355754,-2.073031 1.80368,-3.556124 0.388724,-1.286934 1.137617,-2.971822 1.664321,-3.744214 0.526623,-0.772391 1.207277,-2.398975 1.512561,-3.61463 0.305325,-1.215676 1.055191,-2.937561 1.66645,-3.826399 0.615069,-0.894414 1.362422,-2.615671 1.673482,-3.854294 0.309095,-1.231043 1.075439,-3.257912 1.70287,-4.504199 0.646118,-1.283387 1.304519,-3.262756 1.518317,-4.564754 0.501694,-3.055406 0.936426,-4.393955 1.902077,-5.856593 0.479866,-0.726818 0.991289,-2.276892 1.2683,-3.844097 1.090173,-6.167923 1.503503,-7.838133 2.356326,-9.521581 0.75631,-1.492986 0.951606,-2.457016 1.208674,-5.966492 0.168623,-2.302194 0.588519,-5.313952 0.933122,-6.692824 1.810164,-7.243005 2.334235,-13.397709 2.333808,-27.4100678 -3.85e-4,-14.0499032 -0.546321,-20.4226212 -2.390981,-27.9114742 -0.362336,-1.470767 -0.775404,-4.273595 -0.917983,-6.228476 -0.217872,-2.986784 -0.426847,-3.898429 -1.308632,-5.709008 -0.57715,-1.185044 -1.05199,-2.443595 -1.055192,-2.796767 -0.0061,-0.353151 -0.24201,-1.695065 -0.530777,-2.981999 -0.288768,-1.286934 -0.659576,-2.990027 -0.824024,-3.784657 -0.16457,-0.794631 -0.820394,-2.298828 -1.457556,-3.342692 -0.870192,-1.42564 -1.214733,-2.438588 -1.384675,-4.070666 -0.255732,-2.456854 -0.663161,-3.617673 -1.915269,-5.456999 -1.125722,-1.653647 -2.904675,-6.272043 -2.904675,-7.540853 0,-0.542154 0.179568,-1.045607 0.399001,-1.118792 0.219492,-0.07318 2.289686,0.255741 4.600429,0.730934 3.380427,0.695193 4.494089,1.073928 5.699704,1.938317 0.824084,0.59089 2.250205,1.297111 3.169222,1.569395 0.918995,0.272284 2.421322,0.971166 3.338494,1.553095 0.91713,0.581929 2.71094,1.347266 3.986109,1.700741 1.434818,0.397712 2.754333,1.025375 3.46172,1.646653 0.628749,0.55219 1.952075,1.361822 2.94073,1.799167 0.988715,0.437366 2.364795,1.247059 3.058055,1.799349 0.69328,0.552271 2.104709,1.317263 3.136552,1.699971 1.031823,0.382709 2.159691,1.009968 2.506361,1.393914 0.346611,0.383945 1.457334,1.11646 2.468242,1.6278 1.010847,0.511339 2.138351,1.262383 2.505512,1.669014 0.36716,0.406631 1.07402,0.949535 1.570749,1.206492 1.107317,0.572767 3.332636,0.610676 3.877134,0.06609 0.665251,-0.665432 0.453336,-2.375093 -0.461222,-3.721367 -0.560306,-0.824775 -1.045705,-2.268641 -1.386113,-4.123171 -0.389575,-2.122214 -0.80477,-3.262373 -1.619369,-4.44691 -0.991451,-1.441716 -1.326711,-2.316322 -1.944617,-5.07295 -0.109039,-0.486729 -0.713304,-1.50142 -1.34262,-2.254896 -0.802581,-0.960888 -1.295601,-2.033581 -1.651027,-3.592271 -0.302224,-1.325167 -0.926718,-2.807207 -1.547036,-3.671231 -0.572164,-0.796902 -1.355166,-2.16665 -1.739979,-3.043852 -0.384853,-0.877221 -1.151461,-2.113778 -1.703518,-2.74791 -0.552059,-0.63411 -1.292319,-1.805489 -1.645069,-2.603039 -0.352669,-0.79755 -1.063237,-1.933352 -1.579058,-2.523998 -0.5158,-0.590666 -1.396287,-1.985431 -1.956655,-3.09952 -0.560328,-1.114089 -1.271909,-2.235731 -1.581267,-2.492531 -0.309338,-0.25682 -1.051503,-1.22555 -1.649305,-2.15275 -0.597781,-0.92721 -1.427175,-1.98669 -1.843079,-2.35439 -0.415962,-0.36769 -1.099879,-1.42064 -1.519917,-2.33989 -0.449953,-0.98482 -1.869811,-2.81705 -3.456569,-4.46062 -1.481088,-1.53413 -3.067016,-3.41438 -3.524264,-4.17837 -0.457248,-0.76398 -2.004608,-2.68616 -3.438613,-4.27151 -1.433945,-1.58535 -3.509508,-3.96749 -4.612266,-5.29362 -1.102778,-1.32617 -3.584052,-4.04387 -5.513914,-6.03938 -1.929904,-1.99551 -3.734454,-3.86408 -4.010129,-4.1524 -2.29832,-2.40356 -11.0215232,-10.73128 -11.8364468,-11.29974 -0.5661641,-0.39498 -2.568786,-2.11691 -4.45023029,-3.82652 -1.88144421,-1.70961 -3.56435121,-3.10839 -3.73982451,-3.10839 -0.1755139,0 -0.9918158,-0.63925 -1.8141371,-1.4206 -2.9416011,-2.79516 -5.5470903,-5.12412 -7.5726753,-6.76895 -1.132024,-0.91926 -2.684106,-2.21017 -3.449072,-2.86862 -0.764964,-0.65852 -2.076191,-1.66118 -2.913855,-2.22813 -0.837663,-0.56698 -1.730493,-1.2809 -1.984078,-1.58652 -0.253582,-0.30565 -1.222395,-0.94083 -2.152942,-1.41154 -0.930528,-0.47073 -2.300023,-1.47432 -3.043323,-2.23024 -2.045407,-2.08009 -4.840516,-4.23738 -6.334631,-4.88913 -0.735192,-0.32065 -1.710085,-0.98663 -2.166441,-1.47988 -0.456378,-0.49326 -1.358653,-1.22328 -2.005076,-1.62235 -1.404841,-0.86722 -5.011853,-3.57419 -6.811763,-5.1121 -0.710669,-0.60718 -1.970559,-1.33522 -2.799752,-1.61785 -0.829191,-0.28261 -2.233828,-1.19329 -3.12141,-2.02376 -0.887581,-0.83043 -1.818738,-1.50992 -2.069221,-1.50992 -0.250481,0 -1.046415,-0.50534 -1.768738,-1.12303 -0.722323,-0.61764 -2.140419,-1.53631 -3.151305,-2.04152 -1.010888,-0.50517 -2.224042,-1.28018 -2.695882,-1.72228 -0.471861,-0.44208 -1.749201,-1.14909 -2.838522,-1.57118 -2.466498,-0.95561 -3.320538,-2.12853 -2.339443,-3.21291 0.77599,-0.85769 2.13594,-0.88353 10.226036,-0.19422 13.239303,1.12802 14.377407,1.29543 17.22961,2.5343 1.074283,0.46661 2.842718,0.81081 5.135647,0.99944 2.888052,0.23768 3.827376,0.46093 5.392996,1.28185 2.514411,1.31833 4.036638,1.59816 4.759711,0.87491 0.677857,-0.67805 0.680999,-0.83929 0.04723,-2.42364 -0.480959,-1.20236 -4.307467,-5.0254 -7.163399,-7.15687 -0.652786,-0.4872 -2.364208,-2.02898 -3.803177,-3.42626 -1.438971,-1.39721 -2.754374,-2.54046 -2.923098,-2.54046 -0.168826,0 -0.871144,-0.50747 -1.560899,-1.12775 -0.689774,-0.62026 -1.855664,-1.52724 -2.590856,-2.01546 -0.735193,-0.48821 -2.013404,-1.48926 -2.840508,-2.22449 -3.969757,-3.52897 -4.963559,-4.28821 -6.484105,-4.9537 -0.901201,-0.39447 -2.254624,-1.2517 -3.007611,-1.90497 -2.327566,-2.01949 -4.298388,-3.42561 -6.248376,-4.45813 -1.029452,-0.54508 -2.31654,-1.36544 -2.860188,-1.82301 -0.543667,-0.4576 -1.857063,-1.21628 -2.918659,-1.68584 -1.061595,-0.46962 -2.406161,-1.25623 -2.987911,-1.74804 -0.58175,-0.49177 -1.809639,-1.23013 -2.728613,-1.64079 -0.918995,-0.41065 -2.255071,-1.21394 -2.969044,-1.78508 -0.713995,-0.57115 -1.917034,-1.19818 -2.673426,-1.39337 -0.756391,-0.19522 -1.676036,-0.43645 -2.043623,-0.53606 -0.367605,-0.0995 -1.258551,-0.64531 -1.979922,-1.21271 -0.72135,-0.56738 -2.288165,-1.38623 -3.481822,-1.81962 -1.193636,-0.43339 -2.664813,-1.2223 -3.269281,-1.75317 -0.726782,-0.63829 -1.641421,-1.04343 -2.700463,-1.19613 -1.927734,-0.27789 -3.691061,-0.96496 -4.604483,-1.7941 -1.065386,-0.96705 -1.907509,-1.30185 -4.721953,-1.87717 -1.823905,-0.37283 -3.148605,-0.88616 -4.305405,-1.66833 -1.19498,-0.80799 -2.33717,-1.24052 -4.01013,-1.51871 -1.28658,-0.21389 -3.45018,-0.89741 -4.80802,-1.51887 -2.99071,-1.3688 -4.07801,-1.66928 -7.62538,-2.10707 -1.93432,-0.23876 -3.29659,-0.63438 -4.62374,-1.34278 -1.0348,-0.55232 -2.35725,-1.08093 -2.93876,-1.17456 -9.2741,-1.49404 -11.91006,-2.00861 -13.97877,-2.72859 -1.96723,-0.6847 -3.4725,-0.91175 -7.63046,-1.15094 -5.45042,-0.31349 -9.22885,-0.72759 -11.71001,-1.28334 -0.81949,-0.18367 -4.70908,-0.58128 -8.64348,-0.88379 -9.9019,-0.7614 -28.9333,-0.34629 -35.45415,0.7733 -4.59743,0.78935 -7.36394,1.10323 -12.38148,1.40475 -2.85814,0.1717 -5.4146,0.3762 -5.68102,0.45435 -0.26639,0.0782 -2.23014,0.70739 -4.36385,1.39825 -2.9214,0.94591 -4.17072,1.20144 -5.05886,1.03479 -1.96562,-0.36886 -3.33867,-1.53153 -4.43403,-3.75469 -0.5543,-1.125 -1.50256,-2.62918 -2.10731,-3.34268 -0.60468,-0.71349 -1.61424,-1.97416 -2.24341,-2.80147 -0.62917,-0.82732 -1.73719,-2.27201 -2.46224,-3.21047 -2.18194,-2.824 -11.92343,-11.68591 -14.74115,-13.41011 -0.64602,-0.39532 -1.51429,-1.17838 -1.92953,-1.74019 -0.41523,-0.5618 -1.33867,-1.31929 -2.05209,-1.68339 -0.71343,-0.36403 -1.5745,-1.01145 -1.91353,-1.43873 -0.54785,-0.69049 -2.16505,-2.01117 -5.29489,-4.32412 -0.55139,-0.40748 -1.8444,-1.36823 -2.87329,-2.13502 -1.02892,-0.76675 -2.42289,-1.65618 -3.09773,-1.97651 -0.67484,-0.32033 -1.5374,-1.01854 -1.91687,-1.55153 -0.37946,-0.53307 -1.31635,-1.28282 -2.08203,-1.66617 -0.76567,-0.38336 -1.84326,-1.12196 -2.39465,-1.64132 -0.55138,-0.51939 -1.85378,-1.26112 -2.89416,-1.64816 -1.29292,-0.48107 -2.17782,-1.0791 -2.79571,-1.8894 -0.50625,-0.66393 -1.58543,-1.47634 -2.45266,-1.84641 -0.85171,-0.36337 -1.99976,-1.09336 -2.55114,-1.62212 -0.5514,-0.52877 -1.69663,-1.25755 -2.54498,-1.6195 -0.8483,-0.36195 -1.87092,-1.11958 -2.27246,-1.68365 -1.29096,-1.81349 -4.76264,-2.32983 -4.98703,-0.74176 -0.15891,1.12501 0.50528,2.20688 1.98453,3.23228 0.93791,0.65017 1.85263,1.93571 3.51528,4.94053 l 2.24751,4.0617 0.42773,4.84688 c 0.42453,4.8106 0.87645,7.15041 2.20295,11.40601 0.80219,2.57357 0.63925,3.97036 -0.46316,3.97036 -0.67045,0 -1.34694,-0.52169 -5.73319,-4.42124 -0.97743,-0.86894 -2.32505,-1.80896 -2.99475,-2.08884 -0.66969,-0.27988 -1.97971,-1.18594 -2.91121,-2.01342 -0.93143,-0.82753 -1.8339,-1.50457 -2.00541,-1.50457 -0.17146,0 -1.09776,-0.69815 -2.0583,-1.55146 -2.07244,-1.84116 -4.23735,-2.87434 -5.72203,-2.73085 -0.99211,0.0959 -1.08411,0.20748 -1.18813,1.44105 -0.10499,1.24457 0.72976,4.86495 2.35066,10.1952 0.36338,1.195 0.87936,2.92484 1.14661,3.8441 0.39621,1.36284 0.48619,4.75653 0.48758,18.38479 0.004,17.21021 -0.2402,21.23824 -1.48858,24.77752 -0.45276,1.28355 -1.16297,6.73439 -1.88697,14.48243 -0.31048,3.32252 -0.39467,3.5919 -1.72355,5.51543 -0.76841,1.11223 -2.03124,2.71311 -2.80625,3.55755 -0.77507,0.84436 -1.67098,2.04769 -1.99094,2.67413 -0.31997,0.62639 -1.16316,1.77485 -1.87374,2.55212 -0.71057,0.77722 -1.29198,1.55809 -1.29198,1.73525 0,0.17718 -0.72748,1.08103 -1.61667,2.00871 -0.98338,1.02594 -1.78381,2.24479 -2.04335,3.11161 -0.2347,0.78375 -1.01098,2.1592 -1.72511,3.05647 -0.71416,0.89731 -1.29843,1.84387 -1.29843,2.10352 0,0.25961 -0.66177,1.18009 -1.47057,2.0455 -1.01837,1.08956 -1.63788,2.14946 -2.01454,3.44636 -0.31117,1.07154 -1.04614,2.45986 -1.71782,3.24476 -0.64565,0.75454 -1.40552,2.16804 -1.6886,3.14116 -0.2831,0.97311 -0.96873,2.34324 -1.52351,3.04482 -0.5549,0.70161 -1.35637,2.1626 -1.78111,3.24668 -0.42469,1.08408 -1.24428,2.62848 -1.82117,3.432 -0.60696,0.84545 -1.25891,2.36463 -1.54742,3.60589 -0.31728,1.36534 -0.88055,2.62168 -1.54976,3.45683 -0.57823,0.72152 -1.39504,2.25906 -1.81518,3.41674 -0.42008,1.15768 -1.2017,2.70955 -1.73692,3.44865 -0.62433,0.86211 -1.12292,2.1378 -1.39106,3.55936 -0.28682,1.52054 -0.7037,2.54391 -1.32874,3.26196 -1.24073,1.42528 -1.8811,2.7693 -2.17094,4.5561 -0.31633,1.9499 -0.9664,3.5035 -1.96075,4.68545 -0.4389,0.5218 -1.0558,2.00067 -1.37076,3.28634 -0.31499,1.28568 -1.07239,3.11335 -1.68305,4.0615 -0.72869,1.1313 -1.24202,2.48025 -1.49342,3.92415 -0.39811,2.28668 -0.7969,3.25763 -2.1681,5.27882 -0.44727,0.65924 -1.05908,2.30412 -1.35957,3.65533 -0.33113,1.4888 -0.98501,3.13767 -1.65965,4.18504 -0.73735,1.14478 -1.24403,2.48128 -1.50073,3.95852 -0.24279,1.39711 -0.86928,3.10432 -1.67701,4.57012 -0.85402,1.54964 -1.42039,3.13015 -1.67703,4.67978 -0.26357,1.5915 -0.76306,2.96187 -1.56184,4.28455 -0.71379,1.18206 -1.47449,3.15715 -1.93974,5.036598 -0.42099,1.700559 -1.24716,4.046541 -1.83597,5.213279 -0.76065,1.507217 -1.19643,3.022808 -1.50536,5.235192 -0.35644,2.552764 -0.61995,3.365662 -1.46226,4.511375 -0.56509,0.768642 -1.26879,2.124219 -1.56368,3.012388 -0.33702,1.014915 -0.96011,1.964347 -1.67719,2.555541 -0.62749,0.517381 -1.57662,1.834927 -2.1091,2.927872 -0.53254,1.092964 -1.37555,2.363234 -1.8734,2.822857 -0.49779,0.459624 -1.19211,1.395575 -1.54296,2.079904 -0.35086,0.684306 -1.06728,1.737251 -1.59205,2.339879 -0.52476,0.60261 -1.21735,1.622146 -1.53915,2.265603 -0.32175,0.643478 -1.01805,1.627071 -1.5473,2.185767 -0.52928,0.558696 -1.33196,1.959157 -1.78363,3.11213 -0.45173,1.152972 -1.26162,2.597891 -1.79973,3.210959 -0.53816,0.613068 -1.23371,1.844981 -1.5457,2.737591 -0.31197,0.892608 -1.09152,2.734428 -1.73226,4.092945 -0.86386,1.831643 -1.24679,3.21392 -1.48151,5.348294 -0.17409,1.583059 -0.60327,4.156867 -0.95369,5.719571 -1.38495,6.175585 -1.47611,14.109628 -0.21648,18.831555 0.44942,1.684686 0.92024,4.387893 1.04626,6.007098 0.1893,2.43137 0.44538,3.391812 1.4711,5.5154429 0.68316,1.4142875 1.49577,3.336833 1.80582,4.2723592 0.31007,0.9355061 1.02624,2.138876 1.59156,2.67415753 0.56525,0.53526128 1.3651,1.72914347 1.77745,2.65305347 1.04438,2.3401438 6.26572,7.219915 9.13339,8.5359409 1.15405,0.529605 2.58268,1.326102 3.17468,1.769973 0.59206,0.443892 1.97873,1.05919 3.08149,1.367355 1.10282,0.308166 2.8322,1.060001 3.84305,1.670719 1.58152,0.955454 6.52032,2.525294 7.94471,2.525294 0.256,0 1.61841,0.485471 3.02748,1.078814 l 2.56203,1.078793 8.18735,0.0081 8.18733,0.0081 2.00509,-1.060914 c 1.10277,-0.583509 3.05771,-1.369382 4.34432,-1.746416 1.58334,-0.463982 2.86389,-1.120291 3.96294,-2.031065 0.89303,-0.740077 1.7728,-1.345583 1.95495,-1.345583 0.34346,0 4.85405,-4.5707538 7.00974,-7.1031844 0.67729,-0.7956646 1.77964,-2.4185587 2.44963,-3.6064199 0.67002,-1.1878815 1.43306,-2.39871164 1.69559,-2.69074052 0.26253,-0.29204918 0.90854,-1.79624628 1.43555,-3.34269178 0.52703,-1.5464455 1.36988,-3.7142506 1.87303,-4.8173311 0.61342,-1.3448736 1.00404,-2.9256603 1.18567,-4.7983973 0.34393,-3.546331 0.9139,-4.264857 3.62014,-4.563779 1.03462,-0.114338 2.90445,-0.664905 4.15514,-1.223622 1.53644,-0.686354 3.35173,-1.156723 5.59664,-1.450171 2.51038,-0.328155 3.75165,-0.674717 5.07787,-1.417774 0.96538,-0.540877 2.88314,-1.320466 4.26162,-1.732407 1.37849,-0.411922 2.88228,-1.09264 3.34177,-1.512691 1.28673,-1.176286 2.3565,-1.733523 4.16076,-2.167279 1.01126,-0.243131 2.13723,-0.834102 2.89648,-1.520233 0.68315,-0.617366 2.08724,-1.388947 3.12021,-1.714648 1.13066,-0.356497 2.54892,-1.164932 3.5637,-2.031389 0.92708,-0.79155 1.78885,-1.439204 1.91508,-1.439204 0.12626,0 0.9579,-0.60212 1.84826,-1.338061 0.89033,-0.735922 2.24962,-1.617178 3.02062,-1.958327 1.31443,-0.581606 3.49804,-2.281718 6.2091,-4.8343 0.64329,-0.605708 1.62075,-1.377209 2.17217,-1.714446 1.15914,-0.708978 2.45689,-1.893737 6.83472,-6.239606 1.73732,-1.724886 3.47102,-3.361586 3.85265,-3.637355 1.46289,-1.057103 12.89959,-13.357205 14.52756,-15.624308 0.55999,-0.779832 1.32816,-1.607143 1.70704,-1.838474 0.37886,-0.231353 1.19646,-1.24795 1.81688,-2.259114 0.62042,-1.011165 1.87673,-2.572449 2.79181,-3.469559 1.32143,-1.295468 1.82426,-1.590254 2.44378,-1.432695 1.42114,0.361382 5.77234,3.326352 9.03384,6.155779 1.11261,0.965205 2.17162,1.75491 2.35331,1.75491 0.5206,0 5.60746,5.073681 6.16895,6.152962 0.27805,0.53447 1.13956,1.662629 1.91446,2.507008 0.77487,0.84438 1.73139,2.071612 2.12559,2.727172 0.39422,0.655559 1.03994,1.482869 1.43491,1.838473 0.39501,0.355605 1.08475,1.47387 1.53275,2.485033 0.44804,1.011165 1.2041,2.245451 1.68018,2.742883 0.57644,0.602283 1.12752,1.885548 1.64967,3.8414 0.43121,1.615353 1.0891,3.349707 1.46192,3.854113 1.09531,1.481898 1.67783,3.621747 2.81951,10.357466 0.11572,0.682625 0.61813,2.11163 1.11651,3.175565 l 0.90619,1.934425 v 15.37639 15.3763694 l -0.90589,2.6741575 c -0.83687,2.4704569 -1.84979,7.8236581 -2.61597,13.8252611 -0.21751,1.703804 -0.62446,3.002739 -1.32373,4.225266 -0.69459,1.214337 -1.10969,2.532836 -1.33027,4.225266 -0.37545,2.880899 -0.62868,3.769757 -1.84368,6.471344 -0.49609,1.103101 -1.19376,3.342591 -1.55041,4.976675 -0.68082,3.11957 -0.83647,3.516307 -2.12414,5.414322 -0.43846,0.646317 -0.97384,2.032384 -1.18971,3.080221 -0.41349,2.006981 -1.01232,3.396111 -2.02378,4.694499 -0.33579,0.431079 -0.98903,2.025003 -1.45166,3.542095 -0.46259,1.51707 -1.1664,3.171974 -1.56396,3.677536 -0.39755,0.505542 -1.15357,1.977971 -1.68007,3.272 -0.52645,1.29403 -1.40233,2.958261 -1.94638,3.698255 -0.54403,0.739936 -1.23865,2.111043 -1.54358,3.046812 -0.30494,0.93583 -1.06504,2.333434 -1.68911,3.105926 -0.62407,0.772453 -1.36211,2.051014 -1.64006,2.841266 -0.27799,0.790272 -0.92991,1.966334 -1.44873,2.613542 -0.51881,0.647147 -1.2846,1.850516 -1.70179,2.674138 -0.41717,0.8236 -1.25843,2.054764 -1.86947,2.735866 -0.61105,0.681206 -1.40226,1.809384 -1.75826,2.507051 -0.35599,0.697727 -0.96888,1.559541 -1.36197,1.915105 -0.39309,0.355623 -1.03943,1.182935 -1.43631,1.838515 -0.39687,0.655559 -1.20098,1.793611 -1.7869,2.528983 -0.5859,0.735385 -1.40254,2.013946 -1.81477,2.841277 -0.41221,0.827311 -1.23369,1.955488 -1.82546,2.507048 -0.64398,0.600156 -1.31903,1.740943 -1.68127,2.84127 -0.33289,1.0112 -1.08872,2.44017 -1.67962,3.17557 -0.59089,0.73538 -1.33932,2.1644 -1.66318,3.17554 -0.32386,1.01118 -1.09327,2.75138 -1.70981,3.86704 -0.64344,1.16439 -1.35396,3.15792 -1.66789,4.67978 -0.3008,1.45819 -1.05216,3.62899 -1.66968,4.82399 -0.91193,1.76476 -1.25595,3.0515 -1.8321,6.8525 -0.39012,2.57391 -1.16264,6.03356 -1.71673,7.68821 -0.93861,2.80303 -1.02992,3.52188 -1.33761,10.52946 -0.39242,8.93832 -0.37958,15.9429 0.0523,28.57998 0.315,9.21512 0.33827,9.42666 1.5067,13.70506 0.6527,2.39003 1.18733,4.90133 1.18804,5.58071 5.6e-4,0.67932 0.30427,3.29746 0.67459,5.81804 0.53198,3.62107 0.89275,5.0105 1.71888,6.62014 0.84905,1.65432 1.09909,2.65113 1.33019,5.30301 0.33602,3.85632 1.80402,8.07707 3.42431,9.84563 1.15605,1.26178 2.79693,1.62905 4.88372,1.09303 z"
       id="path1" />
    <path
       fill="#000000"
       fill-opacity="1"
       d="m -76.54562,563.77479 c -0.890238,-0.1273 -2.627115,-0.57278 -3.859747,-0.99015 -1.31388,-0.44484 -3.357705,-0.89006 -4.939824,-1.07598 -2.048972,-0.2408 -2.858324,-0.44449 -3.361721,-0.84608 -1.179225,-0.94066 -1.983002,-1.27832 -3.929748,-1.6509 -1.478714,-0.283 -2.167272,-0.56566 -3.045895,-1.25038 -0.624392,-0.48658 -1.756659,-1.0605 -2.516152,-1.27535 -0.759492,-0.21487 -1.797656,-0.71824 -2.307013,-1.11859 -0.50938,-0.40037 -1.40583,-0.93675 -1.99212,-1.19194 -0.58631,-0.25519 -1.40219,-0.82373 -1.81307,-1.26341 -0.41089,-0.43966 -1.36336,-1.11282 -2.11665,-1.49585 -0.75326,-0.38308 -1.59368,-0.94485 -1.86762,-1.24841 -0.2739,-0.30355 -0.93845,-0.77676 -1.47674,-1.05157 -1.21305,-0.61925 1.209,1.74846 -27.4578,-26.84158 -13.31179,-13.27615 -24.37075,-24.4529 -24.57545,-24.83729 -0.20471,-0.38438 -0.76811,-1.13615 -1.25195,-1.67062 -0.50409,-0.55684 -1.03876,-1.519 -1.25216,-2.25329 -0.20487,-0.70486 -0.6664,-1.55657 -1.02565,-1.89271 -0.88603,-0.82904 -1.02629,-1.13485 -1.44768,-3.15645 -0.20045,-0.96109 -0.70958,-2.43172 -1.13162,-3.26801 -0.99107,-1.96384 -1.25551,-3.88721 -1.25551,-9.13178 0,-5.28366 0.27347,-7.2854 1.22209,-8.94487 0.41628,-0.72825 0.85229,-2.00946 1.02468,-3.01118 0.38089,-2.21301 0.56112,-2.68111 1.46757,-3.81169 0.40607,-0.5065 0.91565,-1.42529 1.13239,-2.0418 0.21676,-0.61647 0.76914,-1.51317 1.22753,-1.99266 0.4584,-0.47949 1.03025,-1.26219 1.27079,-1.73933 0.44286,-0.87848 2.7266,-3.61036 3.82968,-4.58119 2.53422,-2.23038 3.16376,-2.71689 4.20051,-3.24603 0.64595,-0.3297 1.50559,-0.94826 1.91031,-1.37459 0.49566,-0.52213 1.27721,-0.9364 2.39436,-1.26919 0.91218,-0.27175 2.07162,-0.82246 2.57653,-1.22382 1.01902,-0.81004 1.29474,-0.88802 4.4922,-1.27074 1.22674,-0.14678 3.01741,-0.48514 3.97927,-0.75174 1.72665,-0.47862 4.54476,-0.48472 222.506614,-0.48166 l 220.757776,0.004 2.15353,0.59598 c 1.18443,0.32778 3.01294,0.67654 4.06338,0.775 1.61778,0.15165 2.10516,0.31336 3.18664,1.05751 0.7022,0.48316 1.94573,1.08109 2.76345,1.32874 0.93416,0.28293 1.81835,0.76757 2.37932,1.3042 0.49092,0.46968 1.39689,1.07815 2.01325,1.35213 1.74817,0.77723 6.63995,5.37179 7.76659,7.29471 0.35652,0.60865 0.88172,1.31791 1.16693,1.57611 0.28528,0.25822 0.75165,1.09238 1.03638,1.85373 0.28481,0.76132 0.89322,1.79991 1.35209,2.30797 0.60926,0.67454 0.90865,1.31669 1.10983,2.38041 0.1516,0.80117 0.72236,2.35427 1.26852,3.45133 0.85005,1.70742 1.02781,2.353 1.23491,4.48351 0.29713,3.05732 0.3087,8.4116 0.0252,11.58303 -0.21086,2.35756 -0.48863,3.22869 -1.61901,5.07743 -0.32626,0.53355 -0.66853,1.57329 -0.76061,2.31052 -0.13334,1.06839 -0.36495,1.56875 -1.1409,2.46551 -0.57639,0.66617 -1.12941,1.66152 -1.35571,2.44015 -0.25043,0.8618 -0.68846,1.60937 -1.27071,2.16878 -0.48873,0.46955 -1.09194,1.24603 -1.34053,1.72552 -0.2486,0.47949 -0.75411,1.15201 -1.12341,1.4945 -0.36926,0.34249 -0.94025,1.15101 -1.26886,1.79668 -0.32861,0.64566 -0.91873,1.54236 -1.31142,1.99266 -0.39269,0.4503 -0.94201,1.26707 -1.22063,1.81506 -0.27863,0.54797 -0.86437,1.25953 -1.30151,1.58115 -0.43712,0.32167 -0.95235,0.96201 -1.1449,1.42298 -0.19255,0.46099 -0.67175,1.20657 -1.0648,1.65695 -0.39306,0.45031 -0.99859,1.3792 -1.34547,2.0642 -0.34695,0.68498 -0.93296,1.52563 -1.3022,1.86813 -0.36932,0.3425 -0.87439,1.01502 -1.1224,1.49451 -0.24807,0.47947 -0.80789,1.20805 -1.24413,1.61904 -0.43616,0.41099 -1.06254,1.27552 -1.3919,1.92121 -0.32936,0.64567 -0.92017,1.54237 -1.31287,1.99267 -0.39268,0.4503 -0.94672,1.278 -1.2312,1.83927 -0.28445,0.5613 -0.8029,1.20782 -1.15217,1.43672 -0.34917,0.22889 -0.90387,0.94656 -1.23246,1.59484 -0.32867,0.64827 -0.84608,1.40283 -1.14975,1.67683 -0.30367,0.27399 -0.86485,1.11464 -1.24702,1.86815 -0.38217,0.75348 -0.99322,1.64825 -1.35791,1.9884 -0.36469,0.34019 -0.90022,1.01271 -1.19018,1.49449 -0.2899,0.48185 -0.94576,1.3396 -1.45743,1.90616 -0.51169,0.56659 -1.09725,1.3512 -1.30129,1.7436 -0.20402,0.39242 -0.67265,0.99371 -1.04143,1.33621 -0.36869,0.34247 -0.87196,1.01501 -1.1182,1.4945 -0.82296,1.60207 -8.79569,9.34227 -10.585,10.27621 -0.41085,0.21446 -1.06834,0.72806 -1.46107,1.14134 -0.39273,0.41327 -1.06506,0.88882 -1.49413,1.05684 -0.42902,0.16806 -1.28426,0.77979 -1.90057,1.35949 -0.61635,0.57976 -1.54048,1.18759 -2.05368,1.35078 -0.51318,0.1632 -1.38327,0.67296 -1.93355,1.13281 -0.55528,0.46407 -1.63606,1.01858 -2.42861,1.24612 -0.78554,0.22551 -2.0117,0.80873 -2.72489,1.29608 -0.96404,0.65883 -1.77419,0.9692 -3.158,1.2099 -1.38436,0.24078 -2.1888,0.54906 -3.13923,1.20304 -1.3235,0.91066 -1.72245,1.02153 -4.54841,1.26403 -0.92599,0.0795 -1.99051,0.26132 -2.36561,0.40412 -0.37511,0.14292 -1.91464,0.61593 -3.42119,1.05138 l -2.73921,0.79173 -165.097688,0.032 c -100.46057,0.0203 -165.731338,-0.0586 -166.716262,-0.19928 z M -179.79196,448.87896 c -0.0888,-0.23133 0.0183,-2.01039 0.23578,-3.95345 0.21844,-1.94308 0.45683,-5.21418 0.52977,-7.26912 0.14856,-4.1881 0.56393,-7.13754 1.36802,-9.71614 0.4535,-1.45417 0.60129,-2.91379 0.89516,-8.84065 0.36274,-7.31579 0.54151,-8.95924 1.22336,-11.24566 0.21864,-0.73321 0.50269,-2.28583 0.6312,-3.4503 0.46509,-4.21435 1.01879,-8.59128 1.16485,-9.20835 0.0821,-0.34675 0.52946,-1.31939 0.9941,-2.16135 0.62425,-1.13116 0.88562,-1.96778 1.00104,-3.20407 0.12707,-1.36208 0.32022,-1.91111 1.03822,-2.95265 0.48512,-0.7037 1.08133,-1.99574 1.32487,-2.8712 0.25762,-0.92592 0.80528,-2.05706 1.30925,-2.70413 0.47653,-0.61178 1.04207,-1.64134 1.25674,-2.28788 0.21469,-0.64651 0.77751,-1.55086 1.25073,-2.00965 0.4732,-0.45877 1.03078,-1.347 1.23902,-1.97384 0.20829,-0.62685 0.8271,-1.63026 1.3752,-2.22979 0.54807,-0.59955 0.99651,-1.24886 0.99651,-1.44292 0,-0.19401 0.50617,-0.89409 1.12483,-1.55567 0.61865,-0.66156 1.29502,-1.70253 1.50307,-2.31324 0.20802,-0.61071 0.76173,-1.51709 1.23044,-2.01414 0.46871,-0.49706 1.07074,-1.32878 1.33781,-1.84824 0.26709,-0.51947 0.82905,-1.27084 1.24881,-1.66971 0.41976,-0.39887 0.9362,-1.24625 1.14767,-1.88305 0.21145,-0.63683 0.78518,-1.58284 1.27497,-2.10223 0.48977,-0.5194 1.05814,-1.35334 1.26297,-1.85321 0.20486,-0.49985 0.74922,-1.30114 1.20969,-1.78063 0.46046,-0.47947 1.02333,-1.32014 1.25081,-1.86813 0.2275,-0.54798 0.84928,-1.47021 1.38175,-2.04939 0.53248,-0.57915 0.96814,-1.17935 0.96814,-1.33378 0,-0.31992 6.63794,-6.95382 6.95806,-6.95382 0.11513,0 0.75085,-0.44774 1.41288,-0.99495 0.67683,-0.55945 1.76844,-1.15917 2.49391,-1.37013 0.70964,-0.20635 1.75479,-0.76343 2.32261,-1.23796 0.56782,-0.47453 1.39074,-0.92306 1.82873,-0.99675 0.43797,-0.0735 1.53913,-0.24579 2.447,-0.38245 0.90787,-0.13664 2.28153,-0.53732 3.05253,-0.89042 0.77103,-0.35309 2.10127,-0.74315 2.95613,-0.86682 2.1588,-0.31232 240.29314,-0.29294 242.70148,0.0203 1.01349,0.13157 2.63827,0.51199 3.61068,0.84534 0.97247,0.33334 2.72054,0.73689 3.88471,0.89676 2.97986,0.40927 3.94851,0.68484 5.22931,1.48766 0.65304,0.4093 1.92703,0.86617 3.05334,1.09493 1.9178,0.3895 3.24573,0.91337 3.54558,1.39871 0.32219,0.5214 1.57661,0.96398 3.48485,1.22947 1.58046,0.21988 2.22019,0.44632 3.23383,1.14461 0.96389,0.66405 1.76396,0.96225 3.37335,1.25734 1.36966,0.25114 2.52825,0.64179 3.30268,1.1136 1.19265,0.72662 2.90828,1.3007 4.78349,1.60068 0.54782,0.0876 1.61236,0.53271 2.36566,0.98903 0.85986,0.52088 2.09616,0.9787 3.32178,1.2301 2.15657,0.44234 2.02874,0.39043 3.77515,1.53264 0.95487,0.6245 1.70737,0.87946 3.22837,1.09378 1.58875,0.22389 2.23394,0.45222 3.24406,1.14808 0.96099,0.66205 1.7626,0.96063 3.37062,1.25548 1.3696,0.25111 2.5282,0.64179 3.30262,1.11358 1.20943,0.73685 2.95787,1.32092 4.80296,1.60444 0.56196,0.0864 1.64856,0.58585 2.43312,1.11844 1.16074,0.78803 1.72127,0.99407 3.09328,1.13703 1.84042,0.19178 2.0956,0.28866 3.91677,1.48734 0.95118,0.62607 1.70105,0.88367 3.17692,1.09135 1.51804,0.2136 2.21451,0.4595 3.25111,1.14797 1.00325,0.66628 1.82169,0.96451 3.41711,1.24509 1.39925,0.24607 2.48309,0.60848 3.25462,1.0882 1.37187,0.85303 2.37952,1.20783 4.33376,1.52598 1.00342,0.16341 1.88932,0.53274 2.89032,1.20508 1.13274,0.76081 1.77847,1.00742 2.99988,1.14564 1.7983,0.20351 2.84873,0.59631 4.0543,1.51611 0.62264,0.47505 1.45949,0.75717 3.05055,1.02837 1.71371,0.29214 2.4654,0.56027 3.44183,1.22771 0.95476,0.65259 1.74631,0.94134 3.3569,1.22459 1.45587,0.25604 2.48775,0.60709 3.33741,1.13541 1.13845,0.70787 2.73192,1.2251 4.88073,1.58424 0.47934,0.0801 1.51455,0.5827 2.30045,1.11684 1.12738,0.76618 1.75806,1.00849 2.98824,1.14801 1.81355,0.20568 2.84198,0.58751 4.0357,1.4982 0.62263,0.47505 1.45942,0.75717 3.05049,1.02839 1.68731,0.28763 2.47945,0.56654 3.43765,1.21037 1.25651,0.84429 2.28299,1.19023 4.38765,1.47876 0.63279,0.0868 1.64887,0.47383 2.25798,0.86022 1.27318,0.80765 2.2123,1.13608 4.31108,1.50775 1.01439,0.17961 1.92134,0.55862 2.82478,1.18038 1.0529,0.72463 1.74233,0.98134 3.30256,1.22967 1.4471,0.23034 2.35209,0.54583 3.40059,1.18546 1.01264,0.61775 2.04177,0.98564 3.53343,1.26309 1.60379,0.29832 2.40888,0.60103 3.38273,1.27194 0.99468,0.68526 1.74267,0.96094 3.37369,1.24345 1.25752,0.2178 2.34457,0.56061 2.71818,0.85715 1.20089,0.95331 2.08069,1.29687 4.19969,1.63998 1.72684,0.27962 2.39162,0.52131 3.46194,1.25864 1.0085,0.6948 1.77866,0.99155 3.22712,1.24351 1.38628,0.24114 2.25242,0.56329 3.19196,1.18729 0.70916,0.47099 1.75977,0.99734 2.33466,1.16962 0.57484,0.17231 1.51482,0.7254 2.08881,1.22918 0.57392,0.50378 1.43485,1.11745 1.91318,1.3637 2.32195,1.19558 6.98051,5.93616 7.8286,7.96658 0.21837,0.52269 0.83676,1.42761 1.37429,2.01092 0.57643,0.62549 1.09246,1.50409 1.25795,2.14174 0.15423,0.59468 0.6696,1.65558 1.14503,2.35763 0.59011,0.87134 0.94142,1.75436 1.10695,2.78229 0.13336,0.82821 0.52046,2.10326 0.86029,2.83344 1.14077,2.45118 0.80161,2.83581 -2.31045,2.61985 -1.91651,-0.13299 -2.40565,-0.27378 -4.16376,-1.19846 l -1.99211,-1.0477 -4.73132,-0.32047 c -6.9317,-0.46955 -444.07975,-0.47194 -450.7414,-0.002 -4.47332,0.31525 -4.51585,0.32376 -6.13714,1.2307 -1.17442,0.65696 -2.1698,0.99318 -3.54674,1.19803 -1.50198,0.22345 -2.18893,0.47385 -3.19046,1.16297 -0.70198,0.48301 -1.97515,1.08791 -2.82925,1.34422 -0.99391,0.29825 -1.8044,0.73361 -2.25163,1.20949 -0.38431,0.40891 -1.31156,0.97355 -2.06058,1.25475 -0.77158,0.28965 -1.8732,0.98972 -2.54175,1.61523 -0.64895,0.60721 -1.26935,1.10401 -1.37865,1.10401 -0.24527,0 -5.42523,5.06095 -7.29309,7.12552 -2.26967,2.50874 -2.95326,3.47305 -3.50207,4.94027 -0.55441,1.48221 -1.12999,2.02497 -2.42124,2.2833 -0.6108,0.12224 -0.82944,0.062 -0.95379,-0.26206 z m 61.4064,-130.12055 c -0.13985,-0.0466 -0.43456,-0.43353 -0.65491,-0.85979 -0.35961,-0.69556 -0.39583,-2.81666 -0.35351,-20.69545 0.0261,-11.01812 0.15079,-20.46658 0.27886,-21.14252 0.12749,-0.67214 0.61692,-1.85731 1.08776,-2.63369 0.59443,-0.98023 0.93339,-1.93054 1.1092,-3.10962 0.20938,-1.40451 0.4054,-1.86659 1.13389,-2.67316 0.52011,-0.57587 1.00103,-1.45296 1.1745,-2.1421 0.29278,-1.16314 1.01648,-2.14045 3.99475,-5.39479 0.72808,-0.79556 1.59266,-1.69226 1.92126,-1.99267 0.32861,-0.30039 1.18261,-1.13464 1.89777,-1.85385 0.71513,-0.71925 1.42644,-1.30771 1.58068,-1.30771 0.15424,0 0.70096,-0.37613 1.21496,-0.83586 1.13922,-1.01891 1.65513,-1.29058 2.86634,-1.5093 0.63163,-0.11414 1.247611,-0.49362 1.895269,-1.16781 0.876053,-0.91197 1.141167,-1.03015 3.048493,-1.35882 1.224483,-0.21102 2.66848,-0.6614 3.489261,-1.08828 0.770154,-0.40056 2.051384,-0.84868 2.847176,-0.99582 2.008702,-0.37143 141.996283,-0.37316 144.290631,-0.002 0.890257,0.14414 2.571097,0.64179 3.735264,1.10596 1.164168,0.46417 2.761345,0.95816 3.549353,1.09779 1.670484,0.29596 2.319277,0.5999 2.666698,1.2493 0.138222,0.25811 1.021041,0.76357 1.962026,1.12325 0.941047,0.3597 1.979193,0.94147 2.307056,1.29283 0.327862,0.35137 1.04072,0.86687 1.584144,1.14554 1.469027,0.75331 6.507331,6.01366 7.355391,7.67954 0.387752,0.76166 0.890418,1.53878 1.117047,1.72691 0.479806,0.39834 1.231719,1.82998 1.459197,2.7784 0.08695,0.36268 0.543689,1.12094 1.01482,1.685 0.484872,0.5805 1.033931,1.64562 1.265138,2.45417 0.224743,0.78568 0.749725,1.85883 1.166762,2.38474 0.416979,0.52592 0.963827,1.63573 1.215201,2.46622 0.251395,0.83049 0.811661,1.95138 1.245095,2.49085 0.433395,0.53945 0.993701,1.66034 1.245095,2.49084 0.251334,0.83049 0.796947,1.93313 1.212485,2.4503 0.848588,1.05625 1.125599,1.63407 1.50484,3.13874 0.144302,0.57244 0.648895,1.5036 1.121322,2.06922 0.760263,0.91025 1.367124,2.30892 1.371157,3.16031 0,0.16075 0.41112,0.82918 0.911862,1.48538 0.500742,0.65621 1.111939,1.85866 1.358186,2.67211 0.246226,0.81344 0.80323,1.92155 1.237779,2.46245 0.434569,0.54089 1.003306,1.69424 1.263863,2.56294 0.274659,0.91577 0.833589,2.01036 1.330135,2.60491 0.756046,0.90513 1.364544,2.30628 1.368684,3.15133 0,0.15752 0.45243,0.88606 1.00373,1.61904 0.55131,0.73298 1.11687,1.78104 1.25673,2.32904 0.42266,1.65559 0.73083,2.27478 1.49822,3.01015 1.2082,1.15785 1.56802,3.78373 0.62565,4.56601 -0.24555,0.20383 -30.047565,0.2938 -111.4281116,0.3364 -61.1010954,0.032 -111.2073284,0.0203 -111.3471984,-0.0268 z m 237.03225,-13.6795 c -0.84491,-0.11292 -1.29358,-0.64429 -1.7793,-2.10755 -0.21466,-0.6467 -0.72194,-1.59946 -1.12727,-2.1172 -0.40535,-0.51777 -0.92404,-1.52227 -1.15263,-2.23225 -0.22856,-0.71001 -0.79616,-1.77193 -1.26129,-2.35986 -0.47559,-0.60114 -0.97408,-1.61684 -1.13908,-2.32085 -0.35637,-1.52079 -0.59855,-2.01773 -1.4761,-3.02874 -0.37258,-0.42929 -0.91261,-1.55508 -1.20008,-2.50178 -0.30101,-0.99109 -0.78187,-1.96479 -1.13368,-2.29537 -0.65342,-0.61403 -0.96871,-1.27935 -1.39117,-2.93563 -0.14592,-0.57244 -0.64873,-1.49969 -1.11719,-2.06056 -0.46851,-0.56087 -0.90791,-1.21339 -0.97643,-1.45004 -0.0685,-0.23668 -0.24706,-0.90403 -0.39661,-1.48302 -0.14957,-0.57899 -0.70021,-1.54782 -1.22379,-2.15295 -1.4762,-1.70606 -1.60636,-4.25047 -0.26039,-5.09125 0.66482,-0.41531 3.63111,-0.74945 8.32535,-0.93776 2.05443,-0.0825 4.40759,-0.31566 5.22937,-0.51833 1.37658,-0.3395 2.25097,-0.518 7.22142,-1.47427 0.95874,-0.18449 2.52754,-0.34006 3.48624,-0.34582 3.13252,-0.0183 8.98747,-0.72931 11.13221,-1.351 2.24928,-0.65199 5.1203,-1.03149 9.66062,-1.27698 4.73598,-0.25606 7.03889,-0.55083 8.60117,-1.10095 1.94053,-0.68331 6.09342,-1.21609 10.9909,-1.41006 3.12231,-0.12367 4.50846,-0.30037 6.67916,-0.85135 3.77085,-0.95713 7.0198,-1.43834 11.70371,-1.73347 2.1914,-0.13806 5.385,-0.52448 7.097,-0.8587 1.71198,-0.33422 4.00916,-0.7798 5.10481,-0.99022 1.09569,-0.21043 2.83254,-0.38671 3.85976,-0.39177 3.09746,-0.0163 8.83374,-0.71969 11.01967,-1.35333 2.55195,-0.73973 5.32326,-1.07042 10.76922,-1.28502 3.54843,-0.13989 4.51532,-0.2644 5.9764,-0.76999 2.38304,-0.82458 7.52592,-1.54524 12.25209,-1.71686 3.15838,-0.11474 4.52312,-0.28649 6.92216,-0.87145 4.03091,-0.98287 7.07586,-1.48316 9.05946,-1.48849 0.9065,-0.002 2.60074,-0.1115 3.76485,-0.24254 1.16417,-0.13097 3.17183,-0.3542 4.46149,-0.49602 1.28965,-0.1419 3.24412,-0.54202 4.34325,-0.88934 1.68507,-0.53245 2.78172,-0.66979 6.99326,-0.87581 5.23645,-0.25615 6.9558,-0.51435 7.66025,-1.15043 0.39433,-0.35611 0.70971,-1.50159 1.08431,-3.9385 0.11329,-0.73666 0.4268,-1.25603 1.20284,-1.99268 0.57731,-0.548 1.29785,-1.35256 1.60125,-1.78794 0.59931,-0.86015 1.41625,-1.19423 3.53139,-1.44422 0.75325,-0.089 2.17632,-0.43984 3.1624,-0.7796 2.26741,-0.78123 6.06526,-1.28602 11.15602,-1.48282 2.75046,-0.10643 4.56257,-0.30684 5.85184,-0.6475 3.99426,-1.05536 6.78672,-1.49911 11.57926,-1.84001 5.90777,-0.42023 9.12534,-0.8786 11.33025,-1.61409 1.27817,-0.42636 2.43038,-0.56678 5.47835,-0.66765 l 3.85972,-0.12771 1.09493,0.83682 c 0.60221,0.46023 1.33057,0.99727 1.61859,1.19343 1.20529,0.82079 2.7297,2.45008 3.16202,3.37963 0.25492,0.54798 0.46594,1.50282 0.46894,2.12186 0.006,0.61903 0.33991,2.45959 0.7487,4.0901 0.97341,3.88263 1.47063,7.55656 1.6494,12.18824 0.0843,2.18164 0.33414,4.60732 0.59352,5.76095 0.24637,1.096 0.52748,2.49709 0.62455,3.11357 0.0971,0.61648 0.33604,1.73736 0.53103,2.49084 0.349,1.34873 0.91202,9.65232 0.71865,10.59896 -0.0545,0.2669 -0.16111,0.78231 -0.23712,1.14533 -0.13456,0.64384 -3.02114,4.26338 -3.89211,4.88045 -0.58536,0.4147 -3.34944,1.04058 -5.85162,1.32499 -1.11928,0.12711 -2.43189,0.39714 -2.91689,0.59984 -1.47021,0.61445 -2.92201,0.85254 -6.80336,1.11564 -7.30927,0.49548 -9.83065,0.76086 -10.70643,1.12689 -1.58962,0.66437 -4.84828,1.12659 -10.56021,1.4979 -4.43628,0.28839 -6.04355,0.49196 -7.71949,0.97778 -2.68167,0.77736 -7.72632,1.4841 -9.2919,1.30177 -0.93955,-0.10948 -1.72863,-0.49807 -3.6479,-1.79677 -2.50027,-1.69184 -2.56189,-1.76718 -3.50586,-4.28778 -0.16863,-0.45049 -0.52806,-0.93752 -0.79848,-1.08231 -1.14534,-0.61313 -8.52979,0.18955 -14.30157,1.55462 -1.28969,0.30501 -4.15583,0.61339 -7.8111,0.84037 -4.67817,0.29049 -6.18167,0.47677 -7.92336,0.98161 -2.84549,0.82483 -6.69153,1.32137 -11.86116,1.53135 -3.30617,0.1342 -4.67608,0.29895 -6.25542,0.75171 -3.1847,0.91313 -7.41775,1.55764 -11.31931,1.72347 -1.97538,0.0839 -4.32001,0.30999 -5.21022,0.50228 -0.89027,0.19218 -2.40305,0.46253 -3.36173,0.60056 -0.95874,0.13806 -2.30341,0.42828 -2.98821,0.645 -0.74887,0.237 -2.93219,0.48497 -5.47837,0.62219 -5.9217,0.31912 -8.46765,0.63583 -10.99154,1.36741 -2.36143,0.68451 -4.64846,0.96614 -11.06883,1.36302 -3.04839,0.18853 -4.64911,0.41042 -6.10704,0.84692 -2.60299,0.77934 -7.0357,1.3588 -11.79966,1.54253 -2.70976,0.10461 -4.30491,0.28718 -5.35384,0.61313 -0.82171,0.25534 -1.94229,0.53561 -2.49017,0.6228 -0.54782,0.0872 -2.17266,0.36521 -3.61074,0.61779 -1.43802,0.2526 -4.07138,0.52812 -5.85185,0.6123 -3.93233,0.1859 -5.78213,0.44678 -9.84501,1.38837 -2.09573,0.48569 -4.38707,0.8068 -6.97249,0.97708 -7.79433,0.51339 -9.52912,0.72265 -11.44584,1.38068 -1.24659,0.42797 -2.81985,0.71912 -4.73133,0.8756 -1.57502,0.12894 -3.1998,0.2692 -3.61067,0.31166 -0.41091,0.0426 -1.04357,0.0375 -1.40594,-0.0101 z"
       id="path1-8" />
    <path
       fill="#000000"
       fill-opacity="1"
       d="m 63.459597,193.08625 c -1.478046,-0.31079 -2.214151,-1.31147 -2.426997,-3.2995 -0.261833,-2.44571 0.0606,-22.35602 0.47559,-29.37197 0.199227,-3.36725 0.523988,-6.93259 0.721776,-7.92297 0.197808,-0.99032 0.574129,-2.827 0.836346,-4.0815 0.262196,-1.25443 0.588661,-3.98912 0.725443,-6.07705 0.240592,-3.67268 0.487529,-5.06624 1.469089,-8.29103 0.255023,-0.83779 0.734362,-3.16065 1.065204,-5.16189 0.330862,-2.0012 0.967737,-4.82702 1.415318,-6.27955 0.44756,-1.45251 0.977263,-3.34692 1.177099,-4.20969 0.199834,-0.86282 0.693239,-2.1053 1.096435,-2.76102 0.559941,-0.91063 0.790725,-1.66259 0.976939,-3.18312 0.134169,-1.09492 0.526279,-2.66153 0.871488,-3.48129 0.345233,-0.81975 0.930772,-2.42241 1.301196,-3.56153 0.370424,-1.13906 1.05892,-2.63149 1.529991,-3.3165 0.471071,-0.68502 0.919787,-1.64376 0.997146,-2.130467 0.323262,-2.034125 0.645875,-2.999615 1.307558,-3.913349 0.384956,-0.53155 0.932231,-1.664654 1.216133,-2.518056 0.283904,-0.853321 0.886791,-2.167203 1.339763,-2.919646 0.452972,-0.752423 0.934886,-1.781488 1.070899,-2.286806 0.135993,-0.505278 0.613265,-1.323851 1.060501,-1.819033 0.447238,-0.495203 1.046559,-1.524308 1.331818,-2.286928 0.285261,-0.76262 0.82299,-1.73332 1.194974,-2.157121 0.371985,-0.423741 0.954342,-1.399265 1.294142,-2.167846 0.3398,-0.76858 0.915469,-1.74887 1.279245,-2.178468 0.363796,-0.42958 0.959247,-1.30887 1.323224,-1.953989 0.363959,-0.645099 1.359402,-2.037168 2.212085,-3.093581 0.852661,-1.056351 1.837728,-2.460867 2.189018,-3.12117 0.710284,-1.334881 1.521824,-2.298342 4.752779,-5.642048 1.212181,-1.254497 2.552188,-2.788496 2.977841,-3.408984 0.42565,-0.620426 1.37833,-1.646794 2.11707,-2.280804 0.73872,-0.634011 1.57443,-1.417451 1.8571,-1.740882 1.75672,-2.010306 2.72577,-2.95751 3.48872,-3.409997 0.4761,-0.282419 1.35483,-1.010921 1.95274,-1.61892 0.5979,-0.60798 1.72307,-1.64562 2.50038,-2.305863 0.77731,-0.660223 1.96226,-1.726225 2.63324,-2.36881 1.75935,-1.68501 3.28337,-2.222683 4.48162,-1.581213 0.72751,0.389419 2.56694,3.062969 3.11445,4.526701 0.2709,0.724224 0.85847,1.721947 1.3057,2.217129 1.69552,1.877235 1.62088,4.069651 -0.20226,5.942914 -0.59253,0.608791 -1.2472,1.521713 -1.45484,2.028714 -0.20764,0.506981 -0.65499,1.251639 -0.99415,1.654783 -0.33915,0.403205 -0.86999,1.230839 -1.17963,1.839266 -0.30966,0.608363 -0.84003,1.364619 -1.17861,1.680549 -0.33857,0.315869 -0.84429,1.261735 -1.12382,2.101918 -0.27953,0.840184 -0.8749,1.966639 -1.32307,2.503199 -0.49166,0.588619 -1.00805,1.624535 -1.30202,2.611959 -0.26797,0.90001 -0.65627,1.776725 -0.86291,1.948252 -0.45107,0.374457 -1.12109,1.668792 -1.54518,2.984979 -0.17024,0.528227 -0.6617,1.423066 -1.09225,1.988574 -0.5968,0.783988 -0.84867,1.439932 -1.06023,2.761047 -0.37338,2.331872 -0.67205,3.235773 -1.44523,4.373763 -0.78487,1.155201 -0.88138,1.447656 -1.1797,3.574998 -0.17227,1.228588 -0.46334,2.02924 -1.13111,3.111405 -0.79346,1.28586 -0.91727,1.698126 -1.05346,3.50761 -0.11188,1.485789 -0.46193,2.986054 -1.27126,5.447301 -0.89048,2.70804 -1.16545,3.94943 -1.35602,6.12228 -0.13154,1.49898 -0.45102,3.53579 -0.71001,4.52611 -0.96726,3.69814 -1.43105,6.44758 -1.57949,9.36347 -0.15971,3.13956 -0.24574,3.81996 -1.076351,8.52312 -0.445819,2.52439 -0.526381,4.16362 -0.650619,13.24046 l -0.141871,10.35944 0.584911,0.58503 c 0.556757,0.55693 0.76906,0.59191 4.41575,0.72718 4.11315,0.15244 15.48654,-0.16137 18.83228,-0.51982 1.12212,-0.1202 3.2283,-0.44342 4.68045,-0.71822 1.45214,-0.27473 4.31442,-0.60145 6.36062,-0.72599 2.83963,-0.17272 4.17492,-0.36967 5.64052,-0.83172 2.7397,-0.86362 3.97614,-1.10747 6.93073,-1.36698 2.05664,-0.18063 3.38032,-0.47914 6.2406,-1.40773 2.70603,-0.87854 4.08859,-1.19962 5.43044,-1.2612 1.58682,-0.0727 1.97211,-0.18913 3.2508,-0.98211 1.12946,-0.70029 1.90644,-0.97327 3.50932,-1.23276 1.52912,-0.24761 2.51435,-0.58069 3.82988,-1.29478 1.1486,-0.62345 2.23523,-1.01783 3.09131,-1.12202 2.04714,-0.24908 2.77592,-0.49801 3.76512,-1.28618 0.50344,-0.40106 1.53808,-0.96028 2.29922,-1.24264 0.76113,-0.28235 1.70787,-0.78607 2.10387,-1.11937 0.39601,-0.33338 1.40583,-0.81183 2.24408,-1.0634 0.83824,-0.25155 1.99771,-0.81782 2.57658,-1.25841 0.57884,-0.44052 1.70053,-1.04126 2.49262,-1.335 0.79206,-0.29367 1.76416,-0.83916 2.1602,-1.21223 0.39603,-0.373 1.16469,-0.90079 1.70812,-1.1728 0.54342,-0.27203 1.31732,-0.77174 1.71979,-1.11045 0.40246,-0.33877 1.33022,-0.88069 2.06169,-1.20424 0.73145,-0.32355 1.51269,-0.86739 1.73614,-1.20852 0.57745,-0.88156 1.56085,-1.31591 2.9791,-1.31591 1.3849,0 1.95409,0.23316 3.01271,1.23395 0.405,0.3829 1.30797,0.90519 2.0066,1.16057 1.43736,0.52555 3.69278,2.00242 4.3673,2.85978 0.87763,1.1155 0.41541,2.95212 -1.09672,4.358 -0.49193,0.45731 -1.19759,1.26372 -1.56814,1.79189 -0.37054,0.52818 -1.52681,1.82467 -2.56948,2.88108 -1.04266,1.0564 -2.13354,2.31037 -2.42417,2.78655 -0.46593,0.7635 -1.43057,1.74659 -3.42419,3.48968 -0.3234,0.28275 -1.10659,1.11866 -1.74041,1.85764 -0.63385,0.73893 -1.64897,1.68522 -2.25583,2.10289 -0.60686,0.41762 -2.05664,1.68848 -3.22171,2.82405 -3.05557,2.97829 -4.51059,4.20085 -5.86041,4.92415 -0.65501,0.35098 -2.05503,1.33598 -3.11113,2.18888 -1.05608,0.85291 -2.44784,1.84866 -3.09274,2.21269 -0.6449,0.3641 -1.52394,0.95972 -1.95343,1.32359 -0.42948,0.36387 -1.40953,0.93975 -2.17787,1.27965 -0.76835,0.33985 -1.74363,0.92235 -2.16729,1.29443 -0.42367,0.37211 -1.39408,0.90999 -2.1565,1.19535 -0.76241,0.2853 -1.77627,0.87124 -2.25304,1.30212 -0.47676,0.43081 -1.44841,0.97359 -2.15925,1.20617 -0.71083,0.23256 -1.73101,0.72216 -2.26707,1.08805 -0.53604,0.3658 -1.69622,0.90341 -2.57814,1.19468 -0.88193,0.29131 -2.03831,0.84464 -2.56976,1.22972 -0.91342,0.66189 -1.87865,0.98452 -3.91222,1.30792 -0.48664,0.0774 -1.44509,0.52623 -2.1299,0.99745 -0.68481,0.47116 -2.17681,1.15982 -3.31561,1.53036 -1.13877,0.37052 -2.77191,0.96871 -3.62921,1.32932 -0.91064,0.38297 -2.35762,0.74379 -3.48032,0.86776 -1.48844,0.1644 -2.19031,0.3784 -3.11357,0.94944 -0.65559,0.4055 -1.89769,0.90039 -2.76026,1.0997 -0.86258,0.19928 -2.70243,0.71778 -4.08857,1.15221 -1.38614,0.43446 -3.97724,1.03152 -5.75803,1.32689 -1.7808,0.29533 -3.65383,0.68378 -4.1623,0.86325 -2.12461,0.74982 -6.49425,1.56325 -9.53093,1.77431 -3.87467,0.2692 -6.58084,0.63191 -7.20385,0.96538 -0.84608,0.45298 -5.124052,0.95735 -11.2685,1.32862 -6.800719,0.41093 -28.867945,0.67615 -30.349153,0.36475 z M 280.39545,178.03978 c -0.41318,-0.20383 -1.15307,-0.95427 -1.64419,-1.66762 -0.71472,-1.03794 -1.00264,-1.81376 -1.44202,-3.88543 -0.30194,-1.42368 -0.82097,-3.50682 -1.15339,-4.6292 -0.83737,-2.82744 -0.84716,-2.88376 -1.11912,-6.45931 -0.2124,-2.79159 -0.34871,-3.44432 -1.09981,-5.26621 -0.63074,-1.52992 -0.92019,-2.68248 -1.09517,-4.36046 -0.13092,-1.25443 -0.65104,-3.73938 -1.15608,-5.52201 -1.11519,-3.93662 -1.14512,-4.0984 -1.56103,-8.44833 -0.2939,-3.07457 -0.42197,-3.65467 -1.10524,-5.00873 -0.59168,-1.1724 -0.84943,-2.12427 -1.09955,-4.06083 -0.38602,-2.98884 -0.73586,-4.57496 -1.30183,-5.90256 -0.22795,-0.53467 -0.7083,-2.74951 -1.06745,-4.92182 -0.71265,-4.31037 -1.34421,-7.24416 -1.88941,-8.77705 -0.19294,-0.54222 -0.41963,-1.73068 -0.50393,-2.64099 -0.37283,-4.02586 -0.95419,-6.47649 -1.6419,-6.921211 -0.29185,-0.18874 -1.42885,-0.464672 -2.52669,-0.61319 -1.09783,-0.148599 -2.81941,-0.59983 -3.82572,-1.002933 -2.2212,-0.889649 -3.61036,-0.854233 -5.09722,0.129948 -0.5334,0.353111 -1.64318,0.810525 -2.46613,1.016455 -0.82297,0.205911 -2.19835,0.790678 -3.05646,1.299381 -0.85805,0.50871 -2.30563,1.20321 -3.21678,1.54328 -0.91117,0.34011 -1.99863,0.8298 -2.41661,1.08816 -0.41796,0.25838 -1.40851,0.62114 -2.20116,0.80613 -1.55858,0.36368 -2.21076,0.6567 -3.32651,1.49443 -0.39601,0.29735 -1.2061,0.66683 -1.80017,0.82098 -0.59405,0.15407 -1.78216,0.69698 -2.64025,1.20633 -0.85807,0.50929 -2.26221,1.10269 -3.1203,1.31864 -0.89788,0.22592 -2.15452,0.78837 -2.96037,1.32503 -1.65923,1.10488 -2.68021,1.30055 -5.96173,1.14249 -2.24614,-0.10825 -2.51252,-0.17799 -4.35023,-1.14034 -1.07668,-0.56385 -2.49722,-1.18547 -3.15673,-1.38136 -0.65952,-0.19605 -1.6342,-0.65423 -2.16596,-1.01849 -0.53175,-0.36425 -1.43075,-0.89784 -1.99774,-1.18572 -0.56701,-0.28788 -1.43109,-0.8845 -1.9202,-1.32583 -0.48908,-0.44134 -1.3213,-0.98228 -1.84936,-1.2022 -0.52804,-0.21992 -1.28411,-0.70678 -1.68015,-1.08205 -0.39604,-0.3752 -1.16553,-0.9052 -1.70997,-1.17773 -0.54445,-0.27254 -1.24653,-0.79884 -1.56017,-1.1696 -0.31363,-0.37074 -0.94828,-0.935601 -1.4103,-1.255181 -0.46204,-0.319619 -1.2285,-0.912333 -1.70322,-1.31718 -0.47472,-0.404867 -1.70492,-1.384304 -2.73378,-2.176603 -2.63229,-2.027032 -4.43673,-3.586418 -7.20412,-6.225686 -1.32012,-1.259059 -3.58834,-3.415146 -5.04049,-4.791402 -3.28837,-3.116489 -5.42847,-5.258223 -8.78358,-8.790242 -1.44247,-1.518569 -3.65322,-3.84142 -4.91277,-5.161886 -2.6641,-2.793057 -4.2241,-4.596439 -6.22553,-7.196866 -0.79209,-1.029104 -1.77128,-2.261707 -2.17601,-2.739151 -0.40474,-0.477382 -0.99731,-1.246124 -1.31682,-1.708323 -0.31953,-0.462157 -0.88422,-1.096958 -1.25484,-1.410699 -0.37065,-0.313721 -0.89682,-1.015948 -1.1693,-1.560536 -0.27247,-0.544647 -0.80232,-1.314302 -1.17742,-1.710471 -0.37511,-0.39613 -0.86191,-1.152425 -1.08175,-1.68061 -0.21984,-0.528227 -0.76068,-1.360626 -1.20188,-1.849869 -0.44119,-0.489243 -1.03766,-1.35357 -1.32546,-1.92068 -0.28781,-0.567171 -0.83886,-1.492014 -1.22452,-2.05521 -0.38568,-0.563197 -0.86699,-1.582328 -1.06958,-2.264709 -0.20267,-0.682442 -0.80787,-2.08047 -1.34503,-3.106839 -0.92242,-1.762391 -0.9829,-2.00613 -1.08879,-4.387731 -0.13316,-2.992481 0.14126,-4.294275 1.24248,-5.895537 0.45155,-0.656635 0.97436,-1.872026 1.20616,-2.804005 0.22502,-0.904772 0.82686,-2.347259 1.33737,-3.205586 0.51053,-0.858308 1.05432,-2.046716 1.20845,-2.640992 0.15403,-0.594195 0.52344,-1.404516 0.82072,-1.800625 0.80429,-1.071759 1.09363,-1.693038 1.48058,-3.179091 0.19254,-0.739307 0.56199,-1.731008 0.82104,-2.203728 0.25906,-0.472721 0.74849,-1.615759 1.08767,-2.540094 0.33916,-0.924356 1.03046,-2.382879 1.53621,-3.2412067 0.50575,-0.8583277 1.04815,-2.121117 1.20535,-2.8061938 0.15727,-0.6850768 0.62766,-1.7654519 1.0455,-2.4009011 0.66308,-1.0083461 0.75781,-1.3537328 0.74494,-2.715818 -0.0101,-1.11927848 -0.1897,-1.96793606 -0.63327,-3.0011162 -0.34017,-0.7922994 -0.69204,-2.0347754 -0.78193,-2.7610262 -0.2358,-1.9054555 -0.56125,-2.7937666 -1.16968,-3.1925112 -0.91202,-0.5977419 -4.04847,-1.3365618 -6.87325,-1.6190625 -1.48524,-0.1483965 -3.14776,-0.428627 -3.69445,-0.6224746 -1.63627,-0.5801447 -5.74409,-1.4938167 -7.94754,-1.7677017 -2.73267,-0.33969 -4.1023,-0.612501 -5.40444,-1.076463 -1.82004,-0.648606 -4.5977,-1.26962 -6.42083,-1.435696 -1.23233,-0.112108 -2.26134,-0.400467 -3.54074,-0.991762 -1.62839,-0.752545 -2.17068,-0.867654 -5.58351,-1.185044 -3.58712,-0.333568 -5.66681,-0.753011 -9.15686,-1.846705 -0.84508,-0.264864 -2.78429,-0.635408 -4.30934,-0.823458 -2.189057,-0.269952 -3.172179,-0.522267 -4.669843,-1.198648 -1.722326,-0.777865 -2.1876,-0.876247 -5.051558,-1.067946 -1.734994,-0.116163 -3.532572,-0.308835 -3.994604,-0.428242 -3.092307,-0.799152 -8.136285,-2.264445 -8.621198,-2.504435 -0.965894,-0.478009 -2.420511,-2.507859 -2.414999,-3.369917 0.0061,-0.863213 1.497604,-3.225921 3.966371,-6.28078 0.853716,-1.056412 1.848591,-2.341968 2.210827,-2.856734 0.362235,-0.514806 0.982635,-1.283833 1.378657,-1.708911 1.511263,-1.622083 2.762965,-3.220651 3.49684,-4.465923 0.418863,-0.710763 1.597866,-2.210602 2.620001,-3.333043 1.022115,-1.12238 2.090035,-2.497277 2.373167,-3.055325 0.283113,-0.558069 0.839163,-1.254559 1.23565,-1.547804 0.396508,-0.293225 1.149718,-1.187111 1.673829,-1.986425 1.100142,-1.677914 2.170433,-3.105562 3.000212,-4.00186 0.319656,-0.345325 1.004503,-1.263661 1.521868,-2.040776 0.51738,-0.777155 1.66937,-2.1585 2.56001,-3.069719 0.89061,-0.911259 1.83214,-2.138025 2.09224,-2.726157 0.26009,-0.588153 1.36499,-2.057461 2.45533,-3.265068 1.09033,-1.207566 2.20815,-2.638315 2.48404,-3.179374 0.27591,-0.540979 0.76568,-1.156764 1.08837,-1.368249 0.32272,-0.211505 0.83646,-0.795197 1.14166,-1.297131 0.81762,-1.344671 2.34783,-3.403307 3.45073,-4.642356 0.53303,-0.598816 1.34717,-1.609514 1.80922,-2.245998 0.46202,-0.636463 1.13409,-1.562906 1.49342,-2.058799 0.35936,-0.495829 1.04707,-1.20191 1.52823,-1.569009 0.53935,-0.411516 1.10134,-1.179671 1.46537,-2.003068 0.35263,-0.79755 1.33859,-2.162271 2.44748,-3.387636 1.02131,-1.128605 2.10616,-2.464052 2.41074,-2.967647 0.30459,-0.503615 0.99976,-1.194693 1.54482,-1.535721 0.54509,-0.341028 1.33559,-0.919308 1.75669,-1.28513 1.39243,-1.209654 2.22417,-1.260762 17.71613,-1.089761 45.28634,0.500007 58.17735,0.665858 65.40625,0.84142 9.61288,0.233481 10.70945,0.135827 11.55509,-1.029106 0.78241,-1.0778 2.9313,-3.547847 3.76956,-4.33286 0.57382,-0.53735 1.26438,-1.40917 1.5346,-1.93736 0.53366,-1.04314 1.52922,-2.35358 3.41398,-4.49386 0.66484,-0.75495 1.74888,-2.03128 2.40894,-2.83628 0.66006,-0.80501 1.74015,-2.03701 2.40022,-2.73782 1.59186,-1.69013 2.85221,-3.2397 3.23492,-3.97721 0.17127,-0.33014 0.80966,-1.15898 1.41855,-1.84185 2.15422,-2.41592 3.31404,-3.8088 3.76416,-4.52052 0.25058,-0.39612 1.45637,-1.83571 2.67959,-3.19909 1.22324,-1.36338 2.22403,-2.56487 2.22403,-2.67006 0,-0.10522 0.38566,-0.44819 0.85696,-0.76236 0.48622,-0.32404 1.12289,-1.09047 1.47164,-1.77158 0.3381,-0.66022 1.51863,-2.20174 2.6234,-3.42555 1.10477,-1.22382 2.00868,-2.33444 2.00868,-2.46812 0,-0.1336 1.05655,-1.40117 2.34789,-2.81673 1.29135,-1.41559 2.77505,-3.16799 3.29713,-3.89426 0.52208,-0.72627 1.59874,-2.03416 2.39259,-2.90646 0.79377,-0.87228 2.03736,-2.30621 2.76342,-3.18651 2.17159,-2.6329 5.09361,-5.91145 5.26859,-5.91145 0.09,0 0.41787,-0.45918 0.72875,-1.02039 0.31085,-0.5612 1.07609,-1.52899 1.70054,-2.15065 0.62446,-0.62167 1.68557,-1.87039 2.35806,-2.77498 0.67244,-0.90458 1.54543,-1.88339 1.93999,-2.17518 0.39457,-0.29179 0.89755,-0.87905 1.11778,-1.30506 0.22024,-0.426 1.46414,-1.93341 2.76424,-3.34979 1.30006,-1.4164 2.36378,-2.66556 2.36378,-2.77593 0,-0.11028 1.01716,-1.23473 2.26032,-2.49861 1.24313,-1.26387 2.47568,-2.72033 2.73899,-3.23657 0.26331,-0.51626 1.3254,-1.87149 2.36016,-3.01165 1.03479,-1.14016 2.5295,-2.84828 3.32156,-3.79581 0.79207,-0.94753 2.34533,-2.67654 3.45166,-3.84225 1.10636,-1.1657 2.18645,-2.37769 2.40024,-2.69327 0.21373,-0.31562 1.23178,-1.43455 2.26223,-2.48654 1.03042,-1.05199 2.11049,-2.30544 2.40023,-2.78543 0.28968,-0.48001 1.83484,-2.31332 3.43364,-4.07402 1.59883,-1.76071 3.44901,-3.84952 4.11149,-4.64183 0.66251,-0.7923 2.0276,-2.28723 3.03358,-3.32209 1.00602,-1.03486 1.82909,-1.98374 1.82909,-2.10866 0,-0.12487 0.94705,-1.16886 2.10453,-2.31996 1.15746,-1.15111 2.30958,-2.41368 2.56021,-2.80571 0.67881,-1.06183 5.15087,-6.05789 5.80802,-6.4886 0.31348,-0.20544 0.85191,-0.82998 1.19651,-1.38784 0.34458,-0.55787 1.55936,-1.94395 2.69945,-3.08015 1.14005,-1.13622 2.66691,-2.73824 3.39299,-3.56005 1.16105,-1.31416 3.3511,-3.58528 13.32793,-13.8213 1.28703,-1.32048 2.51414,-2.68068 2.72688,-3.02267 0.21272,-0.34199 1.02127,-1.20631 1.79676,-1.92071 0.7755,-0.71441 1.74761,-1.66009 2.16022,-2.10153 0.41258,-0.44144 1.49053,-1.52186 2.39543,-2.4009 0.90484,-0.87903 3.11574,-3.04391 4.91304,-4.81085 1.79732,-1.76693 3.67093,-3.47936 4.16351,-3.80545 0.49265,-0.32609 1.06346,-0.84911 1.26863,-1.16229 0.20517,-0.31316 0.93956,-1.00578 1.63198,-1.53918 0.69249,-0.53336 2.01513,-1.61718 2.93922,-2.40844 2.50449,-2.14452 4.39338,-3.58305 5.74888,-4.37815 0.66649,-0.39091 1.5192,-1.08067 1.895,-1.53278 0.37585,-0.4521 1.07788,-1.02344 1.56018,-1.26967 0.48228,-0.24622 1.0929,-0.68685 1.35689,-0.9792 0.66294,-0.73408 3.93731,-3.21254 4.90642,-3.71381 0.43793,-0.22655 1.24132,-0.82933 1.78527,-1.33957 2.49378,-2.339 3.51719,-3.07758 4.76858,-3.44147 0.93408,-0.27161 1.54722,-0.65122 2.21108,-1.36891 0.50517,-0.54619 1.26813,-1.13919 1.6954,-1.31777 0.42728,-0.17861 1.10509,-0.60095 1.50624,-0.93859 0.40121,-0.33767 1.25132,-0.84278 1.88923,-1.12253 0.63784,-0.27972 1.55985,-0.86707 2.04895,-1.30528 0.48915,-0.43817 1.35324,-1.03199 1.92021,-1.31957 0.56702,-0.28758 1.37791,-0.82563 1.80202,-1.19564 0.42413,-0.37002 1.2882,-0.90121 1.92021,-1.18043 0.63195,-0.27921 1.48468,-0.83248 1.89479,-1.22945 0.47289,-0.45773 1.26149,-0.85653 2.15533,-1.09001 0.92015,-0.24034 1.7266,-0.65465 2.32246,-1.19314 0.50207,-0.45371 1.47636,-1.07769 2.1651,-1.38663 0.68869,-0.30892 1.66427,-0.89401 2.16796,-1.30018 0.55939,-0.45113 1.4236,-0.84396 2.22064,-1.00949 0.9637,-0.20009 1.62685,-0.54587 2.53598,-1.32207 0.67711,-0.57812 1.51836,-1.11424 1.86948,-1.19137 0.35114,-0.0773 1.27463,-0.57217 2.05221,-1.10006 0.77757,-0.52788 1.8826,-1.07788 2.45555,-1.22218 0.57302,-0.14434 1.49342,-0.58965 2.04543,-0.98961 0.552,-0.39998 1.62811,-0.91635 2.39139,-1.14752 0.7633,-0.23117 1.80701,-0.75243 2.31939,-1.15836 0.51243,-0.40596 1.55358,-0.90012 2.31371,-1.09817 1.23741,-0.32239 1.95788,-0.68539 4.17934,-2.10572 0.3565,-0.22791 1.38002,-0.51803 2.27452,-0.64476 0.89448,-0.1267 1.86105,-0.403 2.14792,-0.61398 0.28685,-0.21094 0.87928,-0.64381 1.31642,-0.96187 0.43721,-0.31809 1.36882,-0.69748 2.07025,-0.84315 0.70146,-0.14555 1.78942,-0.59094 2.41778,-0.98955 0.6451,-0.40922 2.14705,-0.98355 3.45032,-1.31937 1.42413,-0.36696 2.68203,-0.86068 3.28515,-1.28941 0.53745,-0.3821 1.77959,-0.90588 2.7602,-1.16397 0.98066,-0.25808 2.4311,-0.74451 3.22316,-1.08092 0.79207,-0.33643 2.62826,-0.95445 4.08039,-1.37337 1.45212,-0.41893 3.09403,-1.02724 3.64866,-1.35179 0.64954,-0.38007 1.77912,-0.70593 3.17387,-0.91555 1.70405,-0.25611 2.46084,-0.50602 3.55196,-1.17302 1.06175,-0.64898 1.91234,-0.93731 3.63033,-1.23059 1.25431,-0.21415 3.27677,-0.79968 4.58658,-1.32792 1.93588,-0.78072 2.79832,-0.98484 4.96459,-1.17498 2.86089,-0.25112 3.44387,-0.41192 4.83696,-1.33407 0.62044,-0.41071 1.63831,-0.73619 3.06926,-0.98146 1.17756,-0.20192 3.73933,-0.79338 5.69285,-1.31453 1.9535,-0.52115 4.49661,-1.05462 5.65132,-1.18547 3.52207,-0.39909 5.902,-0.88533 6.94937,-1.4198 0.66821,-0.34097 1.81279,-0.58866 3.46375,-0.74957 2.9454,-0.28706 7.41757,-1.11888 8.58316,-1.59646 0.46026,-0.18853 1.97238,-0.44822 3.36032,-0.577 1.38789,-0.12873 3.11753,-0.33675 3.84361,-0.46219 0.72604,-0.1255 2.83227,-0.39888 4.68042,-0.6076 1.84817,-0.20873 4.0184,-0.53024 4.82268,-0.71452 2.42449,-0.55553 5.23356,-0.84043 10.65882,-1.08114 5.3353,-0.2367 8.08683,-0.49178 12.00113,-1.11253 2.70611,-0.42915 8.9256,-0.76659 14.32238,-0.77703 3.62277,-0.006 3.93428,0.0282 4.67476,0.52726 0.43632,0.29413 1.04737,0.91034 1.35786,1.36938 l 0.56455,0.83459 -0.15242,5.76212 c -0.0839,3.16918 -0.24813,6.73448 -0.36513,7.92294 -0.48556,4.93175 -0.74054,7.29372 -0.95884,8.88327 -0.12688,0.92433 -0.34029,4.05748 -0.47409,6.96255 -0.23049,5.00508 -0.52604,7.43869 -1.67315,13.77412 -0.27191,1.50151 -0.49431,3.24883 -0.49431,3.88291 0,1.48282 -1.06422,8.71569 -1.52538,10.36701 -0.51861,1.85701 -1.10225,5.27824 -1.32671,7.77669 -0.15199,1.69123 -0.36608,2.53653 -0.94287,3.72136 -0.65651,1.34862 -0.79142,1.99525 -1.12153,5.37449 -0.29977,3.06834 -0.5896,4.59034 -1.44034,7.56278 -0.58582,2.04676 -1.16856,4.57196 -1.29494,5.61154 -0.18646,1.5334 -0.38594,2.12254 -1.05704,3.12117 -0.76316,1.13574 -0.84729,1.4472 -1.08705,4.02624 -0.21101,2.27044 -0.48321,3.46505 -1.44962,6.36235 -0.65443,1.9619 -1.26444,4.10728 -1.35565,4.76752 -0.0912,0.66024 -0.53713,1.8654 -0.99091,2.67811 -0.58187,1.04207 -0.92161,2.07417 -1.15252,3.50117 -0.21793,1.34663 -0.57141,2.45856 -1.05677,3.32409 -0.40105,0.71536 -0.89135,2.00287 -1.08952,2.86121 -0.19823,0.8583 -0.75155,2.64096 -1.22981,3.96145 -0.47828,1.32049 -1.11841,3.15717 -1.42264,4.08152 -0.30414,0.92432 -0.88388,2.22081 -1.28819,2.88106 -0.44809,0.73164 -0.88093,1.92847 -1.10835,3.0647 -0.20526,1.02536 -0.74323,2.59193 -1.19548,3.4813 -0.45234,0.88934 -0.99611,2.23359 -1.20841,2.98719 -0.24339,0.86386 -0.72712,1.76439 -1.30906,2.43694 -0.81932,0.9469 -0.94171,1.25629 -1.0892,2.75374 -0.14107,1.43117 -0.29209,1.84436 -0.99634,2.72495 -0.45654,0.5709 -1.04812,1.74026 -1.31457,2.59856 -0.26647,0.85833 -0.86432,2.17933 -1.3286,2.93558 -0.46425,0.75623 -0.99868,1.89065 -1.18763,2.52092 -0.18889,0.63027 -0.72392,1.67815 -1.18886,2.32862 -0.46484,0.65048 -0.84586,1.29871 -0.84661,1.44054 -0.006,0.72913 -0.57919,2.15084 -1.2876,3.18135 -0.43789,0.6369 -1.02919,1.68528 -1.3141,2.32974 -0.28485,0.64445 -0.88596,1.57921 -1.33576,2.07721 -0.56997,0.63109 -0.90136,1.30803 -1.0935,2.23385 -0.1676,0.80733 -0.56192,1.68764 -1.00538,2.24437 -0.40131,0.50382 -1.02792,1.56426 -1.3924,2.35657 -0.36447,0.79228 -0.94946,1.7038 -1.29995,2.02556 -0.39977,0.36705 -0.81919,1.19643 -1.12572,2.22571 -0.26863,0.90236 -0.7927,1.9896 -1.16458,2.41607 -0.37189,0.42645 -0.92126,1.26157 -1.2208,1.85581 -0.29955,0.59421 -0.86479,1.44742 -1.25608,1.89598 -0.3913,0.44858 -0.9233,1.31291 -1.18225,1.9207 -0.25894,0.60783 -0.83706,1.48326 -1.28476,1.94544 -0.44766,0.46215 -0.97559,1.22848 -1.17312,1.7029 -0.19761,0.47443 -0.73465,1.31206 -1.19346,1.86139 -0.45884,0.54934 -0.95412,1.36213 -1.10064,1.80618 -0.14652,0.44408 -0.68593,1.18414 -1.19867,1.64459 -0.65541,0.58847 -1.04412,1.21356 -1.30847,2.10415 -0.23253,0.78319 -0.76709,1.71273 -1.39996,2.43436 -2.32974,2.65661 -2.95559,3.42169 -3.67284,4.49014 -2.08952,3.11263 -2.6104,3.82999 -3.34312,4.60388 -0.43756,0.4622 -0.9672,1.18175 -1.17703,1.59901 -0.20983,0.41725 -0.75085,1.06554 -1.20229,1.44052 -0.45141,0.37503 -1.20316,1.33011 -1.67049,2.12241 -0.46738,0.79228 -1.61242,2.30343 -2.54454,3.35808 -0.93216,1.05463 -1.69479,2.00092 -1.69479,2.10284 0,0.20934 -2.10344,2.63304 -3.69942,4.26268 -0.58199,0.59422 -1.51494,1.66354 -2.07333,2.37633 -0.55831,0.71276 -2.21514,2.50783 -3.68179,3.98899 -1.46666,1.4811 -3.38563,3.43687 -4.26446,4.3461 -0.87878,0.9092 -1.95889,1.99647 -2.40026,2.41608 -0.44126,0.4196 -1.36456,1.35537 -2.05169,2.07956 -0.68712,0.72415 -1.49715,1.47703 -1.80014,1.67296 -0.55593,0.35966 -1.53794,1.297576 -10.56322,10.088793 -2.73454,2.663617 -5.63884,5.437152 -6.45413,6.163402 -0.81525,0.72627 -2.35826,2.189517 -3.4289,3.251728 -1.07073,1.06213 -2.46387,2.285569 -3.09585,2.718758 -0.63209,0.433126 -1.28012,1.004008 -1.44018,1.268546 -0.25047,0.414131 -2.90094,2.750302 -6.4959,5.725733 -0.5584,0.462199 -1.87498,1.682739 -2.92573,2.712331 -1.05068,1.029633 -2.18043,2.01803 -2.51043,2.19643 -0.33005,0.1784 -0.94212,0.686517 -1.36022,1.129091 -0.41804,0.442553 -2.2374,2.101168 -4.04295,3.685747 -1.80558,1.584578 -4.41007,3.880406 -5.78787,5.101859 -1.37774,1.221453 -2.6202,2.220838 -2.76108,2.220838 -0.14085,0 -1.1906,0.953528 -2.33283,2.118988 -1.14224,1.16544 -2.40084,2.324677 -2.79686,2.576079 -0.39607,0.251361 -2.23225,1.88577 -4.08044,3.631903 -1.84814,1.746152 -3.7923,3.464064 -4.3204,3.817601 -0.52803,0.353535 -1.77016,1.368004 -2.76022,2.25437 -0.99009,0.886364 -2.12425,1.813943 -2.52024,2.061372 -0.39607,0.247328 -1.58416,1.307917 -2.64029,2.356768 -1.05612,1.048831 -2.38205,2.202269 -2.94655,2.563205 -0.56451,0.360935 -1.96863,1.525685 -3.1203,2.588424 -1.15162,1.062677 -2.52595,2.246909 -3.05398,2.631645 -0.52809,0.384695 -1.17614,0.944467 -1.44017,1.243997 -0.26405,0.299448 -1.07407,0.949454 -1.80015,1.444412 -0.72606,0.49498 -2.05013,1.616245 -2.94233,2.491723 -0.89224,0.875539 -1.72116,1.591816 -1.84206,1.591816 -0.121,0 -1.4536,1.107419 -2.96142,2.460929 -1.50791,1.35351 -3.47852,3.055123 -4.37924,3.781394 -0.90073,0.726271 -2.45638,2.062813 -3.45713,2.97012 -1.0007,0.907346 -2.25153,1.9326809 -2.77956,2.2785947 -0.52808,0.3459745 -2.1702,1.7374147 -3.64926,3.0921004 -1.47898,1.3547464 -2.84725,2.4631789 -3.04052,2.4631789 -0.19334,0 -1.15766,0.7832781 -2.14305,1.7406178 -0.98539,0.9573804 -2.25692,2.01079278 -2.82559,2.3408736 -0.56874,0.3301416 -1.68855,1.2210679 -2.48856,1.979897 -2.41135,2.2872521 -5.88274,5.3048907 -6.83659,5.9430159 -1.11172,0.7437462 -2.59076,1.9394529 -4.19341,3.3902107 -0.67408,0.610129 -1.54958,1.279109 -1.94562,1.48658 -0.39602,0.207533 -1.73544,1.355923 -2.97646,2.552015 -1.24099,1.196132 -2.34693,2.174758 -2.45767,2.174758 -0.11066,0 -0.78435,0.513204 -1.49695,1.140403 -4.31069,3.794429 -5.90879,5.092858 -6.87026,5.581877 -0.59404,0.302186 -1.67413,1.128543 -2.40019,1.836407 -0.72613,0.707863 -2.01175,1.918693 -2.85702,2.690659 l -1.5368,1.403665 0.0805,12.100314 c 0.0446,6.655117 0.0973,12.748536 0.11755,13.540836 0.0203,0.792279 0.0618,16.475213 0.0922,34.850894 0.0541,32.773501 0.046,33.427971 -0.41555,34.332711 -0.5793,1.13497 -2.08144,2.69901 -4.11393,4.28349 -0.84695,0.66024 -1.97825,1.59113 -2.51405,2.06861 -0.5358,0.47754 -1.35222,1.05996 -1.81424,1.29425 -0.46203,0.23434 -1.75816,1.25728 -2.88029,2.27313 -1.12207,1.0159 -2.62086,2.15969 -3.33057,2.54177 -0.70969,0.38211 -1.44994,0.93834 -1.64495,1.23609 -0.19516,0.29774 -0.74226,0.78104 -1.21602,1.07389 -0.47377,0.29286 -1.40768,0.99349 -2.07535,1.55697 -2.69941,2.27807 -3.66308,3.03746 -4.69433,3.69926 -2.1388,1.37255 -3.65391,2.55339 -4.24429,3.30803 -0.33076,0.42274 -1.05029,0.99703 -1.59891,1.27617 -0.54862,0.27918 -1.90267,1.32867 -3.00908,2.33223 -1.98982,1.80489 -2.70589,2.35114 -5.83501,4.45097 -0.88329,0.59275 -1.72502,1.30019 -1.8705,1.57209 -0.14552,0.2719 -0.71887,0.77839 -1.27426,1.1256 -0.55537,0.34715 -1.40256,0.96683 -1.88261,1.377 -0.4801,0.41012 -1.34418,1.04063 -1.9202,1.40108 -0.57604,0.36044 -1.80337,1.30851 -2.72747,2.10676 -0.9241,0.79831 -2.11224,1.73386 -2.64026,2.07901 -0.52803,0.34517 -1.46848,1.09878 -2.08994,1.67465 -0.62138,0.57587 -1.24887,1.04703 -1.39447,1.04703 -0.14551,0 -0.82527,0.52709 -1.51042,1.17141 -0.68519,0.64423 -2.16386,1.7899 -3.28594,2.54581 -1.12212,0.75598 -2.48107,1.82242 -3.01987,2.36997 -3.12089,3.17105 -5.09757,4.05977 -6.97219,3.13472 z m 157.0061,-316.54086 c 5.91458,-0.80403 7.7876,-1.20795 10.56096,-2.27743 1.45218,-0.55999 3.07231,-1.15254 3.60034,-1.3168 0.52809,-0.1642 1.28411,-0.60148 1.68019,-0.97165 0.396,-0.37016 1.31409,-0.93597 2.04015,-1.25734 0.72613,-0.3214 1.53616,-0.82751 1.8002,-1.12472 0.26405,-0.29723 0.8581,-0.73634 1.32011,-0.97581 0.46208,-0.23948 1.22879,-0.79518 1.70384,-1.23491 0.47505,-0.43974 1.17709,-1.08203 1.56013,-1.42732 0.62793,-0.56605 1.28262,-1.28874 3.99875,-4.41405 0.45904,-0.52819 1.0572,-1.40001 1.3292,-1.93739 0.27195,-0.53738 0.8695,-1.42592 1.32769,-1.97458 0.45829,-0.54865 1.05157,-1.64427 1.3184,-2.43472 0.26689,-0.79046 0.81692,-1.84999 1.22224,-2.35453 0.54815,-0.68225 0.85636,-1.46924 1.20268,-3.07064 0.26732,-1.23619 0.79941,-2.76421 1.24937,-3.58773 0.77133,-1.41181 0.78666,-1.50092 0.96978,-5.64209 0.10275,-2.32097 0.0835,-6.45148 -0.0429,-9.21183 l -0.22891,-5.00421 -0.94014,-1.71827 c -0.59018,-1.0787 -1.00496,-2.20978 -1.11441,-3.03876 -0.22597,-1.71238 -0.46272,-2.30727 -1.29619,-3.25678 -0.37647,-0.42891 -0.92485,-1.5023 -1.21864,-2.38531 -0.29375,-0.883 -0.82587,-1.9465 -1.18242,-2.3633 -0.35659,-0.41683 -0.90412,-1.13598 -1.21676,-1.59815 -0.31264,-0.46219 -0.98079,-1.29708 -1.48483,-1.85533 -0.50406,-0.55824 -0.91645,-1.13627 -0.91645,-1.28448 0,-0.35156 -3.95028,-4.30295 -4.30172,-4.30295 -0.14815,0 -0.72607,-0.41251 -1.28414,-0.91667 -0.55812,-0.50419 -1.39282,-1.17254 -1.85482,-1.48526 -0.46204,-0.31271 -1.18103,-0.86038 -1.59773,-1.21706 -0.41672,-0.35668 -1.47991,-0.88894 -2.36265,-1.18277 -0.88276,-0.29385 -1.95586,-0.84239 -2.38466,-1.21899 -0.94928,-0.83367 -1.54397,-1.0705 -3.2559,-1.29656 -0.82877,-0.10947 -1.95952,-0.52434 -3.03788,-1.1147 l -1.71784,-0.94036 -5.00281,-0.22897 c -2.75966,-0.1263 -6.88904,-0.14556 -9.20934,-0.0427 -4.14007,0.18326 -4.22913,0.19846 -5.64057,0.97008 -0.81521,0.44562 -2.34849,0.98181 -3.55319,1.24252 -1.51081,0.32699 -2.3721,0.65861 -3.0003,1.15518 -0.4846,0.38312 -1.40703,0.87471 -2.0498,1.09244 -1.52239,0.51564 -2.02644,0.78918 -2.97837,1.6163 -0.43275,0.37597 -1.24278,0.91461 -1.80021,1.19697 -0.55736,0.28236 -1.44542,0.88906 -1.9735,1.34822 -3.12444,2.71691 -3.84697,3.3718 -4.41285,3.99988 -0.34519,0.38312 -0.98725,1.08537 -1.42687,1.56057 -0.43966,0.47517 -0.99682,1.24208 -1.23817,1.70427 -0.24137,0.46216 -0.76987,1.15486 -1.17446,1.53931 -0.40465,0.38447 -0.90501,1.20907 -1.11205,1.83245 -0.20698,0.62339 -0.5994,1.33523 -0.87204,1.58183 -0.51473,0.46566 -1.40467,2.03996 -1.40467,2.48491 0,0.14028 -0.47017,1.46803 -1.04486,2.95065 -1.14993,2.96675 -1.53669,4.76309 -2.34196,10.87844 l -0.5401,4.10125 0.52333,3.10597 c 0.28785,1.70828 0.52331,3.46863 0.52331,3.91188 0,1.41947 1.22628,6.32852 2.04543,8.18827 0.43616,0.99037 0.86742,2.07076 0.95829,2.40088 0.0908,0.33013 0.47511,0.99508 0.85386,1.47765 0.37879,0.48257 0.94731,1.45491 1.26337,2.16078 0.31612,0.70588 0.86993,1.5535 1.23061,1.88363 0.36072,0.33011 0.87172,1.03237 1.13559,1.56057 0.65795,1.31724 6.29106,6.98155 7.63429,7.67662 0.59409,0.3074 1.35011,0.85429 1.68019,1.21532 0.33004,0.36103 1.1774,0.9151 1.88309,1.23131 0.70568,0.3162 1.67778,0.88489 2.16024,1.26373 0.48239,0.37886 1.14716,0.76319 1.47714,0.85409 0.33008,0.0908 1.41017,0.52227 2.40028,0.95859 1.90731,0.84056 6.75088,2.03898 8.31057,2.05628 0.51167,0.006 2.01041,0.20933 3.33053,0.45259 3.17326,0.58469 3.70039,0.58549 7.92079,0.0121 z"
       id="path1-4" />
  </g>
</svg>
