<?xml version="1.0" encoding="UTF-8" standalone="no"?>
<!-- Created with Inkscape (http://www.inkscape.org/) -->

<svg
   version="1.1"
   id="svg1"
   width="2448"
   height="2000"
   viewBox="0 0 2448 2000"
   sodipodi:docname="Alakir.svg"
   inkscape:version="1.3.2 (091e20ef0f, 2023-11-25, custom)"
   xmlns:inkscape="http://www.inkscape.org/namespaces/inkscape"
   xmlns:sodipodi="http://sodipodi.sourceforge.net/DTD/sodipodi-0.dtd"
   xmlns="http://www.w3.org/2000/svg"
   xmlns:svg="http://www.w3.org/2000/svg">
  <defs
     id="defs1" />
  <sodipodi:namedview
     id="namedview1"
     pagecolor="#ffffff"
     bordercolor="#000000"
     borderopacity="0.25"
     inkscape:showpageshadow="2"
     inkscape:pageopacity="0.0"
     inkscape:pagecheckerboard="0"
     inkscape:deskcolor="#d1d1d1"
     inkscape:zoom="0.29415643"
     inkscape:cx="1286.7303"
     inkscape:cy="1036.8633"
     inkscape:window-width="1920"
     inkscape:window-height="1029"
     inkscape:window-x="0"
     inkscape:window-y="0"
     inkscape:window-maximized="1"
     inkscape:current-layer="Image" />
  <g
     inkscape:groupmode="layer"
     inkscape:label="Image"
     id="Image">
    <rect
       style="fill:none;stroke-width:150;paint-order:stroke markers fill"
       id="rect1"
       width="979.29126"
       height="689.69879"
       x="977.90503"
       y="850.78387" />
    <rect
       style="fill:#5e4a7f;stroke-width:150;paint-order:stroke markers fill;fill-opacity:0.84687006;stroke:#787f41;stroke-opacity:1"
       id="rect2"
       width="478.26169"
       height="647.11414"
       x="376.92914"
       y="334.99673" />
    <rect
       fill="#5e4a7f"
       fill-opacity="0.84687"
       stroke="#787f41"
       stroke-width="150"
       stroke-opacity="0.60706824"
       style="paint-order:stroke markers fill"
       id="rect3"
       width="818.20947"
       height="825.28809"
       x="1391.9938"
       y="586.39282" />
    <rect
       style="fill:#5e4a7f;fill-opacity:0.84687;stroke:#787f41;stroke-width:150;stroke-opacity:0.607068;paint-order:stroke markers fill"
       id="rect4"
       width="899.94397"
       height="569.29651"
       x="248.36336"
       y="1304.626" />
    <rect
       style="fill:#5e4a7f;fill-opacity:0.84687;stroke:#787f41;stroke-width:150;stroke-opacity:0.607068;paint-order:stroke markers fill"
       id="rect5"
       width="834.59058"
       height="764.10144"
       x="1042.8418"
       y="168.14543" />
  </g>
</svg>
