<svg
   width="1000"
   height="1000"
   version="1.1"
   xmlns="http://www.w3.org/2000/svg"
   xmlns:svg="http://www.w3.org/2000/svg">
  <g
     id="Archetype"
     transform="matrix(13.99541,0,0,13.627915,-199.77048,-181.39031)">
    <path
       fill="#000000"
       fill-opacity="1"
       d="m 17.481,38.862 c 0.264,0.922 1.225,1.455 2.147,1.192 l 2.596,-0.743 2.94,10.274 c 0.286,0.999 1.327,1.576 2.325,1.291 l 7.951,-2.275 c 0.999,-0.286 1.576,-1.327 1.291,-2.326 L 33.791,36.001 82.136,22.168 c 0.922,-0.264 1.455,-1.225 1.191,-2.147 L 82.517,17.19 C 82.253,16.268 81.292,15.735 80.37,15.999 L 32.027,29.832 27.69,14.674 c -0.286,-0.999 -1.327,-1.576 -2.326,-1.291 l -0.741,0.212 c -0.486,0.139 -0.896,0.468 -1.137,0.913 l -5.103,9.427 c -0.234,0.433 -0.289,0.94 -0.154,1.413 l 2.23,7.793 -2.596,0.743 c -0.922,0.264 -1.455,1.225 -1.192,2.147 z"
       id="path1"/>
    <path
       fill="#000000"
       fill-opacity="1"
       d="m 85.726,56.905 v -5.957 h -47.85 v 3.196 H 14.274 c 0,0 8.847,12.008 23.602,12.008 4.119,0 7.458,3.339 7.458,7.458 0,4.119 -3.339,7.458 -7.458,7.458 v 5.621 h 18.113 c 0,-3.21 2.602,-5.812 5.812,-5.812 3.21,0 5.812,2.602 5.812,5.812 h 18.113 v -5.957 c -6.58,0 -11.914,-5.334 -11.914,-11.914 0,-6.58 5.334,-11.913 11.914,-11.913 z"
       id="path2"/>
  </g>
</svg>
