<svg
   width="1000"
   height="1000"
   version="1.1"
   xmlns="http://www.w3.org/2000/svg"
   xmlns:svg="http://www.w3.org/2000/svg">
  <g
     id="Archetype"
     transform="matrix(19.38187,0,0,16.59764,-6476.7104,-12015.132)">
    <path
       fill="#000000"
       fill-opacity="1"
       d="m 368.65286,724.92426 -0.0549,0.0452 0.0657,0.0128 z m -0.058,0.77994 -0.15914,0.1311 -0.17876,0.0818 q 0.0455,-0.10355 0.091,-0.20709 l 0.12348,-0.003 z m 2.359,-1.79813 -0.31892,0.26263 -0.003,0.29303 -0.068,0.22577 -0.63684,0.52637 v 0 l 0.0764,-0.0843 0.31891,-0.26266 0.13858,-0.14984 -0.0498,-0.5823 -0.15948,0.1314 -0.21833,-0.1283 -0.29572,-0.0607 -0.36239,-0.15465 -0.15946,0.13128 -0.092,0.20093 -0.13612,0.0807 -0.31893,0.26264 -0.0646,0.22686 -0.15949,0.1313 -0.1444,-0.011 -0.31895,0.26265 0.2071,0.0902 0.46426,-0.374 v 6e-5 l 0.10459,-0.0861 0.18835,-0.0159 0.0238,0.0777 -0.0794,0.18756 -0.1365,-0.0876 -0.09,-0.0176 0.002,0.011 -0.47836,0.39395 0.0969,0.397 -0.0613,0.2262 0.38248,0.2102 0.25644,0.008 0.3189,-0.26266 0.0748,-0.22027 0.15943,-0.13137 0.26037,0.16243 -0.11743,0.17467 0.24006,0.2859 0.3189,-0.2627 0.27042,0.0288 0.0731,-0.217 0.12329,-0.1668 0.0912,-0.18515 -0.15507,0.11905 0.0309,-0.1812 -0.0182,-0.225 0.15453,-0.0285 0.3189,-0.2627 -0.042,-0.14904 0.15942,-0.13136 0.16388,-0.0974 0.21222,-0.004 0.31888,-0.2627 -0.32333,-0.2478 z m -12.24507,7.11419 -0.17068,0.10214 -0.17459,0.1104 -0.12006,0.0928 0.3004,-0.18986 z m 1.67777,-0.55866 -0.048,0.0499 -2.0953,1.32456 -0.11921,0.14834 -0.0356,0.2312 -0.11994,0.13737 -6e-5,3e-5 q -0.0252,0.018 -0.0503,0.036 l -6e-5,4e-5 q -0.4072,0.24872 -0.4664,0.31806 l -0.0115,0.0273 -6e-5,6e-5 q -0.2632,0.19183 -0.52357,0.38556 v 0 q -0.0266,-0.004 -0.0558,-0.007 h -7e-5 l 0.13577,-0.0858 q 0.13855,-0.1426 0.20297,-0.3515 0.0458,-0.0923 0.49619,-0.3559 0.0951,-0.18144 0.24649,-0.31254 z m 10.69348,5.0621 q -0.17348,0.17827 -0.30316,0.3146 l -0.0669,0.0915 q 0.14,-0.14801 0.2812,-0.29395 l 0.0891,-0.1121 z m -13.23786,2.258 -0.4646,0.4617 -0.16092,0.2099 0.36164,-0.35937 0.13193,-0.15613 z m 24.87398,2.15336 -0.2049,0.20679 -0.0456,0.0664 0.14538,-0.14675 0.0526,-0.0632 z m -16.30958,1.11828 -0.15274,0.46056 -0.16416,0.0376 q 0.15758,-0.24981 0.31674,-0.49811 z m 8.40838,6.34416 q -0.11062,0.1763 -0.22125,0.35256 l -0.17383,0.18158 -0.17382,0.18152 0.069,-0.19686 0.0698,-0.0887 h -2.5e-4 q 0.16593,-0.18276 0.33113,-0.3628 h -2.5e-4 q 0.0496,-0.0336 0.0992,-0.0673 z m 8.41754,1.2559 q -0.0694,0.087 -0.13498,0.1697 h -3.3e-4 l -0.14063,0.064 v 0 q 0.13556,-0.11507 0.2756,-0.2337 z m -9.36904,0.33757 q -1.15995,1.24103 -1.29096,1.53883 l 1.13316,-1.1734 0.17443,-0.2149 -0.0164,-0.15053 z m -22.25403,2.78357 -0.22087,0.37796 0.16688,-0.0375 0.10779,-0.15885 z m 7.62073,0.0532 -0.45222,0.67407 v 0 l 0.24552,-0.30233 0.10336,-0.1858 z m 11.87963,0.33354 -0.13299,0.11726 -0.16361,0.19019 -0.1636,0.19019 0.0675,-0.28334 z m 8.43415,2.0859 -0.0377,0.0752 q -0.15317,0.1368 -0.30592,0.2743 l -0.15264,0.1376 0.10132,-0.15013 -2.8e-4,3e-5 q 0.1847,-0.15787 0.3949,-0.337 z m -3.04346,3.14025 -0.15392,0.0988 -0.11476,0.1131 v 0 l 0.0464,-0.0687 0.0543,-0.0541 0.0235,-0.0129 z m -39.2944,1.49395 -0.23282,0.60426 -0.1192,0.51284 0.0934,-0.0235 0.30632,-0.79499 z m 32.58294,1.09754 q -0.38394,0.49246 -0.75982,0.9906 l -0.032,0.0663 q 0.3592,-0.4771 0.74848,-0.9778 l 0.0435,-0.0791 z m -0.33476,1.13756 -0.0607,0.12984 -0.18661,0.24231 0.0312,-0.0856 h -1.8e-4 q 0.10805,-0.14394 0.21618,-0.2866 z m -8.86675,4.9301 -0.47671,0.6953 -0.0402,0.084 0.46722,-0.6815 z m -7.93745,1.92447 -0.30638,0.40733 -0.11029,0.17617 -0.11029,0.17608 v 5e-5 l 0.30636,-0.4074 q 0.1103,-0.1761 0.22062,-0.35223 z m 7.619,-2.19952 -2.31414,3.3814 v 0 l 2.19944,-3.23535 z m 14.51093,-34.15305 q -0.0763,0 -0.12523,0.0241 -0.1613,0.0737 -0.31248,0.23326 l -0.78002,0.22316 q -0.76698,0.69214 -1.52104,1.40174 -0.11533,0.1621 -0.14249,0.3727 l -0.10167,0.1695 q -0.14927,0.1434 -0.29686,0.28726 -0.14556,0.14524 -0.17134,0.35414 -0.64543,0.63463 -1.24876,1.2914 l 0.0673,-0.0985 h -1.8e-4 q 0.39172,-0.42496 0.87634,-0.92266 0.0913,-0.1584 0.0297,-0.4036 l -2.1e-4,10e-5 0.0628,-0.092 0.50504,-0.5153 0.0567,-0.19984 -0.0455,-0.0409 0.0715,-0.10476 0.87909,-1.05387 -1.01353,0.8194 q -1.00975,0.67407 -1.83318,1.24384 v 3e-5 l -0.63235,-0.0339 -0.34924,0.32995 q -0.43781,0.271 -1.07636,0.335 l -0.45357,0.25467 -1.65346,2.25207 h -1.4e-4 q -0.3268,0.26941 -0.67213,0.56086 l -0.10843,-0.2154 -0.61456,0.83234 h -1.2e-4 q -0.24341,0.20976 -0.49512,0.42946 h -1.2e-4 l -0.2858,0.0444 -0.18512,-0.15332 -0.43414,0.27471 -0.33789,0.0663 -0.0536,-0.10854 -0.54505,-0.0226 -0.3182,0.31096 -0.51083,0.1002 q -0.001,-10e-4 -0.003,-10e-4 -0.0591,0 -0.82315,1.0414 h -8e-5 l -0.36457,0.048 -0.44391,0.23855 q -0.35192,0.38145 -0.47608,0.88295 -0.41444,0.31694 -0.6297,0.7915 l -0.4021,0.2837 -0.19229,0.48704 0.29743,-0.13254 0.2698,-0.4119 0.23862,0.0956 -0.36462,0.3564 q 0.01,0.2475 -0.005,0.4768 l -6e-5,4e-5 -0.21817,0.29546 -0.1885,0.13887 -0.14133,0.1629 -0.14136,0.16293 0.45999,-0.4495 -0.0458,0.0621 -2.16402,2.11467 0.19316,0.16563 -0.15222,0.28377 -0.87424,0.85423 -0.24295,0.0768 -0.79005,-10e-4 -0.6062,0.15315 -0.57244,0.84385 0.10938,0.42825 -0.33347,0.32585 -0.0854,0.0206 -0.12642,0.1864 -0.18974,0.18545 0.0474,0.0244 -0.58985,0.86955 0.0122,0.57111 -0.57242,0.84387 -0.2887,-0.0153 -0.85861,1.26576 0.43118,0.18494 0.31375,-0.3982 1.1113,-1.6098 0.002,0.007 0.0407,-0.0697 0.34077,-0.30108 0.34983,-0.24475 0.1472,0.312 -0.0889,0.314 v 0 q -0.0433,0.0723 -0.0866,0.14524 v 6e-5 l -0.25637,-0.2853 -0.28623,0.42196 -0.21439,0.0481 -1.03705,1.52885 0.0262,0.5825 0.18547,0.5367 v 10e-5 q -0.27587,0.5227 -0.55322,1.06816 v 0 l -0.0836,-0.073 q 0.21204,-0.46226 0.43652,-0.92056 l -0.84857,-0.2396 -0.25351,0.40436 -0.66403,1.37787 -0.50622,0.26837 -0.33765,0.379 0.0707,0.5412 -0.2213,0.45926 -0.0786,0.50984 -0.2778,0.4081 0.13365,0.40756 0.22143,-0.45923 0.27216,-0.26739 -0.22131,0.45926 0.23083,0.61074 0.0384,0.40296 -0.27725,-0.0483 -1.10675,2.29647 0.36632,0.046 -0.79552,1.6507 -0.31438,0.39824 -0.46522,0.30716 -0.66403,1.37796 0.21478,0.047 0.61927,0.002 h -4e-5 q -1.8999,5.1586 -1.37646,5.45983 l 0.039,-0.0356 q 1.07867,-1.18622 2.81619,-3.62325 2.47336,-3.6465 4.41376,-6.4515 h -3e-5 l 0.37793,-0.0946 q 0.0735,-0.11204 0.26074,-0.48871 l -2e-5,7e-5 1.31725,-1.9636 q 0.0928,-0.2444 0.16742,-0.49735 l -3e-5,5e-5 q 0.67068,-0.952 1.25033,-1.7603 h -7e-5 l 0.37517,-0.0572 0.0997,0.5068 -0.56815,0.8467 0.18758,0.433 0.62184,0.0142 1.13592,-1.69327 0.37217,-0.33819 q 0.4736,-0.24201 0.82861,-0.59154 l 0.0638,-0.5043 q 0.18653,-0.46856 0.50305,-0.8769 l 0.1582,-0.48484 0.34614,-0.35276 0.0873,-0.5141 -0.18934,0.0793 -0.28409,0.4234 -0.32514,0.25294 v 0 l 0.284,-0.4235 0.0774,-0.5188 -0.10363,-0.6024 0.13405,-0.13823 0.22566,0.023 1.70424,-2.5404 q -0.1076,-0.17624 -0.1628,-0.3855 l 0.8521,-1.2702 0.36402,-0.3491 0.0589,-0.2812 q 0.32266,-0.3827 0.8649,-0.57835 l 0.49813,-0.74255 -1.3e-4,6e-5 q 0.29566,-0.27806 0.59354,-0.60742 l 0.0118,-0.29474 0.0329,-0.0489 -0.0307,-0.005 0.007,-0.1826 0.60563,-0.82035 0.20648,-0.43585 0.33395,-0.3768 0.0816,-0.3791 0.41195,-0.54836 0.72883,-0.71214 0.16576,0.1841 1.82334,-1.7816 -0.57715,-0.0815 -0.38505,0.32709 -0.69198,0.67625 q 0.0631,-0.0982 0.12653,-0.1962 h -1.5e-4 l 0.45837,-0.6101 0.25483,-0.249 0.003,-0.0946 0.8889,-1.1831 h 2e-4 q -0.0262,0.1704 -0.1026,0.3249 -0.23744,0.3304 -0.46733,0.6671 l 0.22211,0.0728 0.1857,-0.0323 0.94302,-1.2743 q 0.14063,-0.133 0.3283,-0.1997 0.10743,-0.1828 0.2802,-0.2618 l 0.12456,-0.1535 q 0.0313,-0.1816 0.13196,-0.3489 l 0.7562,-0.8899 q 0.059,-0.18643 0.19275,-0.3354 h -2.2e-4 l -0.0946,0.0343 q -0.35773,0.3693 -0.37155,0.44145 l -0.11502,0.0138 q 0.13464,-0.15075 0.27057,-0.2989 0.07,-0.0707 0.17395,-0.5712 l 0.0989,-0.17085 -0.0106,0.14525 0.0607,0.008 q 0.62865,-0.66316 1.58995,-1.5805 l 0.0405,-0.0813 -0.19716,0.05 0.10968,-0.11967 q 0.44678,-0.4236 0.90051,-0.8404 l 0.17234,-0.099 -0.002,-0.0573 0.1521,-0.13907 0.15857,-0.12237 q 0.2254,-0.006 0.3761,-0.14661 l 0.76581,-0.69 0.30771,-0.27625 q -0.24601,-0.0881 -0.39191,-0.0881 z m -7.83188,-4.7507 -0.053,0.0174 q -0.53335,0.2798 -1.05841,0.56493 v 0 l -0.7254,-0.0262 -0.19312,0.0475 -1.57147,0.99346 -0.16421,0.12024 -0.0944,0.18646 -0.87198,0.5529 -0.1879,0.0653 -0.20932,-0.008 -0.0366,-0.0841 0.0996,-0.1775 0.69845,-0.44154 -0.16833,-0.16466 -0.18768,-0.0421 -1.21201,0.75644 -0.1799,0.0924 -0.20932,-0.008 q -0.16748,0.13747 -0.36474,0.16237 l -0.1746,0.11034 q -0.072,0.1828 -0.24814,0.30006 l -0.52383,0.33116 -0.12991,0.14884 q -0.20052,0.0458 -0.3407,0.2021 l -0.12892,0.1535 0.0142,0.0453 q 0.45334,-0.27301 0.4903,-0.33695 l 0.094,0.0295 -0.34922,0.2208 q -0.0607,0.0804 -0.29256,0.55015 l -0.0806,-5e-5 0.0403,-0.1422 -1.92071,1.2142 q 0.18195,0.003 0.15755,0.0682 l -1.04763,0.6623 -0.1886,0.0675 -0.0185,0.0633 -0.17458,0.11041 -0.18936,0.0639 -0.21421,10e-4 -1.22229,0.77264 0.24027,0.12646 0.0475,0.009 v 10e-5 q -0.44522,0.1656 -0.85234,0.36325 l -1.73436,3.00225 v 0 q -0.68514,0.6373 -1.34539,1.2906 v 0 l -0.004,-0.0122 -0.024,0.0398 h -2e-5 q -0.93485,0.92621 -1.81965,1.88452 v 0 l -0.13791,-0.0659 -0.32739,0.44996 -2.93545,1.12954 -1.39777,2.41954 -0.0186,1.40301 -0.57773,0.11895 -1.74719,3.0245 q -0.12344,0.4536 -0.19246,0.8701 l -1e-4,6e-5 q -0.46186,0.29688 -1.4486,0.9057 l -0.30348,0.39914 -0.73332,1.9029 -0.0428,0.4962 0.0801,0.2249 -1.3294,2.3013 0.35214,-0.0859 -0.58154,1.50914 0.1565,0.51376 -0.91663,2.3787 q -0.16925,0.0381 -0.3425,0.20044 l -1.09995,2.85446 0.22293,0.0312 0.41971,-0.3172 0.73319,-1.903 -0.0225,-0.5106 0.34521,-0.28206 0.73323,-1.90304 2e-5,2e-4 0.13375,-0.3472 0.23063,-0.33724 0.2559,-0.18786 0.18327,-0.4758 0.11069,0.3109 0.065,0.5119 -0.18336,0.4757 -0.17088,0.0832 -0.15522,-0.41195 -0.54998,1.42725 -0.17844,0.0447 -1.34354,3.48676 -0.0416,0.5366 0.26204,0.48787 0.1073,0.53523 q 0.1376,-0.3587 0.36679,-0.95204 L 336.4328,763.74 h 1.5e-4 q -0.23571,0.7319 -0.4627,1.4742 v 0 l -0.0386,-0.1925 -1.5e-4,10e-5 q -0.1373,0.3579 -0.18338,0.482 l 0.0982,0.119 h -1.4e-4 q -0.91355,3.03034 -1.68284,6.23004 l 3.76749,-5.73524 7.28827,-11.7972 0.15133,-0.2159 0.11685,0.0959 0.6923,-0.15974 1.74704,-3.0245 0.70629,-0.2927 0.84363,-1.07805 -0.0554,-0.72229 0.69876,-1.20986 0.18654,-0.6504 0.0574,-0.0819 0.3656,-0.4539 q 0.006,-0.0429 0.0113,-0.0837 h -3e-5 l 1.43631,-2.049 1.90067,-1.8193 0.53662,-0.0874 q 0.418,-0.21554 0.79835,-0.5966 l 0.10283,-0.5093 q 1.7804,-1.7406 1.9115,-2.2827 h -6e-5 l -0.30493,0.1437 -0.69314,0.66266 0.0724,-0.22796 0.36164,-0.3594 q 0.10897,-0.48283 0.15728,-1.00725 h -6e-5 q 0.0938,-0.10815 0.1895,-0.21815 l 0.0211,-0.0229 0.0888,0.21381 2.8931,-2.87517 -0.40327,-0.0116 0.21116,-0.29095 1.44654,-1.4376 0.3814,-0.2496 0.12134,-0.24994 0.42584,-0.263 0.5279,-0.12652 1.80816,-1.79694 -0.7323,-0.26196 1.86236,-2.02214 q 0.5947,-0.6997 0.99528,-1.2761 0.14419,-0.1975 0.0911,-0.5543 z m -23.50638,46.5063 0.0544,0.1292 0.0519,-0.12336 z m 41.01843,-26.57027 -1.91625,0.87147 q -2.44077,2.0768 -3.90012,3.39825 l -0.32217,0.45715 -1.5452,1.44653 h -2.6e-4 q -0.18163,0.0174 -0.3404,0.10767 -0.31532,0.2753 -0.73023,0.6678 l -2.5e-4,5e-5 -0.13458,0.0789 v 10e-5 l 0.42426,-0.6003 1.47256,-1.4268 q -0.0842,-0.0133 -0.16416,-0.0133 -0.23168,0 -0.42828,0.11174 -0.94989,0.82936 -2.80322,2.72166 l -0.46518,0.3025 -0.73337,0.68055 -2.66065,3.30095 -0.4303,0.7455 0.7792,-0.9659 0.0678,-0.15105 q 0.0797,-0.12905 0.3927,-0.32655 h 1.7e-4 l -0.77773,0.97365 -0.35861,0.76645 -0.11249,0.1396 -0.13144,0.22774 0.0709,-0.1944 -0.0893,0.0998 q -1.14547,1.48465 -2.22629,3.0108 l -1.03128,1.4873 0.41528,-0.36806 -0.10088,0.15069 -1.9927,2.87167 q -0.0978,0.137 -0.0808,0.137 0.0136,0 0.0997,-0.0867 l 1.3e-4,7e-5 -0.45613,0.68566 -0.5377,0.53418 -1.23988,1.90846 -0.67315,1.04155 q 0.25909,-0.0746 0.44823,-0.18985 h 1.3e-4 l -0.21443,0.33 -0.67314,1.0415 q 0.27716,-0.0798 0.47427,-0.2061 l 1.2e-4,4e-5 -0.37335,0.57756 q 0.17795,-0.0512 0.32288,-0.12157 h 1.2e-4 l -0.13962,0.20117 q -0.0978,0.13697 -0.0808,0.13697 0.0135,0 0.0997,-0.0867 l 9e-5,6e-5 -0.45615,0.6858 -0.53774,0.53417 -1.23984,1.90843 -0.67319,1.0415 q 0.40354,-0.1161 0.63745,-0.33104 0.14082,-0.0455 0.68665,-0.92206 l 1.07785,-1.0111 q 0.7955,-1.21875 1.48715,-2.255 l 1.2e-4,5e-5 -0.34347,0.52865 -0.67318,1.04154 q 0.40353,-0.11608 0.63744,-0.33114 0.14081,-0.0454 0.68666,-0.92197 0.5381,-0.50629 1.07787,-1.01113 1.57993,-2.4205 2.75021,-4.12113 l 0.12036,-0.32477 0.39116,-0.3129 1.4e-4,3e-5 q -0.0288,0.12377 -0.008,0.20502 0.16846,-0.24078 0.3169,-0.45209 l -1.9e-4,4e-5 0.7804,-0.6243 q 0.91922,-1.13495 1.595,-1.9268 l -1.8e-4,4e-5 1.27775,-1.02224 q 1.27224,-1.57084 2.07814,-2.48435 l 0.23923,-0.44195 h -2.1e-4 q 0.2218,-0.21894 0.45059,-0.44154 l -2.1e-4,4e-5 0.004,-0.003 q 0.004,-0.004 0.008,-0.008 h -2.1e-4 q 0.0547,-0.0532 0.10977,-0.10657 l 0.0232,-0.0382 -2e-4,1e-4 q 0.72903,-0.79305 1.56958,-1.644 h -2.5e-4 q 0.54007,-0.49616 1.08841,-0.9853 l 0.12956,-0.11035 h 2.3e-4 q -0.23211,0.31781 -0.20773,0.31781 0.0136,0 0.1069,-0.0988 l 3.16993,-2.77605 -0.6496,0.30735 q -1.09491,0.9369 -2.17223,1.8895 l -0.20762,0.3022 -0.16083,0.0647 q 0.091,-0.0887 0.18325,-0.1781 l 0.14637,-0.2404 h -2.5e-4 q 0.92786,-0.81853 2.19916,-1.9171 -0.0606,-2.5e-4 0.26562,-0.44715 h -2.7e-4 q 0.035,-0.0313 0.0701,-0.0626 l 0.12947,-0.11033 2.6e-4,4e-5 q -0.23206,0.31766 -0.20766,0.31766 0.0136,0 0.10686,-0.0987 l 3.16994,-2.77604 -0.64958,0.3073 q -1.09494,0.93694 -2.17227,1.8895 l -0.20762,0.3022 -0.0968,0.039 q 0.15866,-0.21094 0.3776,-0.49146 h -3.1e-4 q 0.0115,-0.0101 0.023,-0.0202 h -2.6e-4 l 0.45064,-0.38247 0.0856,-0.0876 h -3e-4 q 0.68946,-0.60309 1.5285,-1.32815 -0.0965,-4e-4 0.78786,-1.1334 l -3e-4,6e-5 -1.41314,1.1991 q -0.16256,0.0757 -0.32506,0.15164 l -0.15306,0.0716 0.27524,-0.241 h -3e-4 q 0.8786,-0.7571 2.09527,-1.7879 l 3.1e-4,5e-5 q -0.26712,0.33509 -0.47831,0.60565 l 0.47028,-0.39904 0.16287,-0.16676 0.0817,-0.1533 -0.0464,-0.0478 0.59845,-0.5067 -1.28635,0.585 q 0.18348,-0.27654 0.69449,-0.9312 l -3e-4,6e-5 -1.41317,1.19909 q -0.088,0.041 -0.17597,0.0821 v 0 q 0.0143,-0.0236 0.0326,-0.0519 h -3.5e-4 l 0.48616,-0.4257 v 0 l -0.23642,0.11186 q 0.7767,-0.66681 1.78613,-1.52206 l 3.3e-4,10e-5 q -0.26714,0.3351 -0.4784,0.6057 l 0.47026,-0.39905 0.16287,-0.16675 0.0817,-0.15325 -0.0465,-0.0478 0.59858,-0.50686 v 0 l -1.13452,0.516 0.29068,-0.24614 -0.73328,0.33349 v 0 l 0.0802,-0.15045 -0.0464,-0.0478 0.59857,-0.5068 -1.16504,0.5298 q 0.14538,-0.192 0.33662,-0.437 h -3.2e-4 l -0.72152,0.61225 -0.36626,0.16655 q -0.3579,0.3045 -0.69472,0.59285 h -3e-4 l -0.11774,0.0551 q 0.95946,-0.83013 2.37946,-2.0332 h 3e-4 q -0.26706,0.3351 -0.47827,0.60565 l 0.47024,-0.39905 0.16291,-0.16674 0.0817,-0.15326 -0.0464,-0.0478 z m -32.5849,30.11907 -0.27456,0.40065 -0.0758,0.2052 0.0545,0.0952 0.14036,-0.20476 z m -8.45895,-3.75945 q -0.17889,0 -0.46048,0.0647 l -0.18727,0.1246 -0.33955,0.7533 0.0328,0.22536 -0.16977,0.37664 -0.1914,0.122 -0.18605,-0.1324 q 0.0813,-0.1895 0.16658,-0.37765 l -0.3823,-0.0553 -0.25461,0.5615 q -0.17233,0.1343 -0.33575,0.2724 0.0166,0.21164 -0.0511,0.40793 -0.0964,0.19031 -0.1467,0.37267 l -0.002,0.2144 q 0.11888,-0.1602 0.24378,-0.3022 l 8e-5,4e-5 -0.0847,0.18806 0.10546,0.24816 0.006,0.12594 -0.11064,0.0309 -0.33954,0.7533 q 0.0248,0.11114 0.058,0.21644 l -0.16977,0.37663 -0.10466,0.15302 -0.0394,0.14679 -0.21729,0.11121 -0.25463,0.565 0.18457,0.033 0.29135,-0.0477 0.15609,-0.1443 0.28176,-0.0697 0.12465,-0.16436 0.25467,-0.56494 0.0453,-0.20013 -0.0924,-0.24134 0.0849,-0.18829 -0.0433,-0.22664 0.50938,-1.1299 0.0451,-0.0599 -0.42444,0.94165 -0.0463,0.19585 0.1636,0.2602 -0.0849,0.18836 0.0815,0.2395 q 0.11985,-0.11456 0.19312,-0.32746 l 0.17093,-0.1021 0.134,0.004 0.23789,-0.0961 q 0.30325,-0.0567 0.52103,-0.16492 l 0.1698,-0.37664 0.0489,-0.1991 -0.077,-0.2034 0.17714,-0.1044 0.2547,-0.56495 -0.0458,-0.22448 0.2547,-0.56501 0.10663,0.008 0.2547,-0.56497 0.0389,-0.15943 -0.23163,0.097 -0.16977,0.37665 -0.0406,0.1774 -0.11903,0.16086 q -0.0418,0.11078 -0.0851,0.18874 l 0.007,-0.0148 -0.035,-0.0723 -0.005,0.0113 -0.0545,0.19843 q 0.0445,-0.0449 0.0874,-0.12196 l 7e-5,10e-5 -0.0779,0.17276 -0.14731,0.0685 -0.0855,0.18671 -0.096,-0.15808 0.0522,-0.19812 0.12068,0.13225 0.0864,-0.17504 0.0849,-0.18826 0.0345,0.0714 0.41501,-0.9366 -0.17432,-0.2589 -0.0429,-0.102 -0.0296,0.0703 -0.0849,0.18836 -0.21556,0.10694 0.2243,-0.4976 0.0513,0.003 -0.009,-0.0206 0.0499,-0.18755 q -0.0313,-0.002 -0.0666,-0.002 z m 3.68605,5.4162 -0.21562,0.35999 0.009,0.10492 0.19067,-0.31836 z m 38.65523,-43.00655 q -4.0462,2.13 -7.27551,4.1674 l 1.98065,-2.50265 q -0.29035,-0.076 -0.57871,-0.076 -0.246,0 -0.49051,0.0553 l -0.41168,0.21324 q -0.29379,0.38564 -0.67059,0.7181 l -1.39911,0.5858 -0.367,0.33076 -3.16417,3.99781 q -0.0154,0.12713 -0.0301,0.25457 h -2.1e-4 q -0.34585,0.27066 -0.67605,0.53956 l 0.0234,-0.32343 -0.23288,0.0171 -1.0697,1.3515 -2.2e-4,10e-5 q -0.3722,0.3066 -0.73773,0.6143 h -2.1e-4 l -0.14666,0.0816 -0.151,-0.20324 q -0.007,-0.002 -0.0149,-0.002 -0.12146,0 -0.50183,0.4845 l -2.3322,0.9754 -0.4355,0.2372 -1.89853,2.39865 -0.28092,0.41355 q -0.0209,0.5144 -0.17129,0.9786 l -0.2536,-0.0613 -0.39612,0.34945 -2.83384,3.63515 4e-4,0.0859 h -1.2e-4 q -1.13998,1.3751 -2.15906,2.76753 -0.12747,0.19167 -0.25542,0.38611 -0.0167,-0.0307 -0.0269,-0.0759 l -2.84777,3.59803 q 0.25048,-0.009 0.78582,-0.22193 h 6e-5 q -0.12982,0.2128 -0.26013,0.4282 h -5e-5 l -0.0717,0.0617 -1.2259,1.62982 -0.3807,0.32428 q -0.49442,0.19916 -0.86246,0.53131 l -0.25095,0.43735 -0.0786,0.4977 -0.61295,0.81495 -0.2237,0.41541 -0.32215,0.38989 -0.11254,0.50549 0.20999,-0.0911 q 0.30695,-0.4456 0.61212,-0.7383 l 3e-5,4e-5 q -0.0317,0.22259 -0.38824,0.71266 0.0394,0.4618 0.0454,0.9067 h -3e-5 q -0.0376,0.0691 -0.0753,0.1384 l -0.0861,-0.1175 -0.25852,0.1983 -2.14532,2.8522 0.42929,-0.041 -0.23357,0.36304 -1.6719,2.20165 -0.57692,0.12922 -1.53235,2.03729 0.88487,0.18044 0.45186,-0.19875 0.34791,-0.36295 0.23239,-0.0515 -0.51576,0.86114 q -0.0524,0.19367 -0.009,0.4167 l -0.13082,0.008 -0.13132,0.16885 -0.63686,1.0634 -0.0899,0.1942 0.0122,0.1962 -0.5307,0.88613 -0.0879,0.0989 -0.0498,-0.0643 -0.74302,1.24056 q 0.0187,0.0104 0.0446,0.0104 0.0862,0 0.25283,-0.1153 l 1.13597,-1.8841 v 1.5e-4 l 0.10277,-0.17169 0.11753,-0.0487 0.1066,-0.11635 0.1061,-0.1772 0.0246,0.18985 -0.0396,0.19765 -0.10615,0.1772 -0.0702,0.023 -0.0151,-0.2138 -0.42459,0.70884 -0.009,-0.10388 -0.87073,1.45379 -0.0265,0.21662 0.0496,0.20459 -0.003,0.22784 0.2497,-0.417 0.11786,-0.1656 0.20596,-0.078 -0.55712,0.93024 -0.0331,0.0152 q 0.0104,-0.0411 0.0144,-0.082 l 0.002,-0.20276 -0.0687,0.1147 -0.0423,0.2133 v 0 l 0.0942,-0.0432 h 5e-5 q -0.0344,0.13506 -0.13852,0.27135 l 0.0906,0.0162 0.36203,-0.13755 h 3e-5 q -0.87786,2.29401 -0.55523,2.57325 l 0.0642,-0.0508 q 1.8269,-1.7309 5.01077,-5.8819 l 1.03952,-1.3853 -0.0268,0.0855 0.39347,-0.57415 0.4219,-0.56225 0.27909,-0.19055 -1.24996,1.82325 -4e-5,10e-5 -0.46726,0.6815 1.22238,-0.8348 0.13758,-0.13276 1.98572,-2.89648 q 0.0968,-0.0782 0.21844,-0.53522 l 1.05124,-1.53344 q -0.0325,-0.0717 0.57861,-0.45374 h 3e-5 l -0.2058,0.53084 -0.80064,1.195 q 0.0346,0.0187 0.0879,0.0187 0.137,0 0.39793,-0.12315 l 1.62394,-2.34008 q 0.15073,-0.10883 0.30465,-0.21192 l 0.49945,-0.61761 q 0.28171,-0.34339 0.32447,-0.68738 l 1.24112,-1.84466 q -0.0218,-0.0996 0.25674,-0.52784 h -6e-5 l -0.1182,0.0915 -0.46551,0.67975 -0.0651,0.1638 -0.15159,0.1135 -0.0189,-0.0269 0.45148,-0.68437 0.26694,-0.90956 0.11112,-0.1579 v 6e-5 l -0.0848,0.361 0.10443,-0.1431 2.2193,-3.23725 -0.27225,0.19415 -0.002,-0.0443 0.53098,-0.7745 2.117,-1.27226 0.3657,-0.30274 q 1.1631,-1.63964 2.3612,-3.2283 l 0.3876,-1.34524 q 0.002,0.024 0.0378,0.024 0.11029,0 0.54086,-0.229 1.36918,-1.7698 3.48792,-4.2041 0.39188,-0.4564 0.31815,-0.8583 1.15609,-1.3076 3.06411,-3.29325 0.003,-1.5e-4 0.006,-1.5e-4 0.11871,0 0.0487,0.30026 1.55567,-1.62 3.90824,-3.91101 l 0.0966,-0.19205 -2.8e-4,3e-5 q -0.45538,0.13654 -0.90616,0.28787 l -2.50143,2.4902 q -0.39195,0.34266 -0.47751,0.8259 l -0.39526,0.0463 -1.43508,1.4861 -0.15687,0.1932 q -1.18921,1.2886 -1.68189,1.85213 l -0.18064,-0.13128 -0.29143,0.26519 -0.32977,0.37686 -0.32752,0.3781 0.0779,-0.3216 h -2.1e-4 q 0.53836,-0.6549 1.06985,-1.284 l 1.8e-4,6e-5 -0.0771,0.3277 q 1.00034,-1.12201 2.0341,-2.21912 l 0.0215,0.19706 q 1.46592,-1.56834 4.57498,-4.64304 0.30286,-0.45116 0.26599,-0.80296 h -2.7e-4 l 0.6857,-0.692 0.0556,-0.2065 q -0.0211,-0.0141 0.56752,-0.59633 l 0.19328,-0.0726 0.18422,0.005 -0.0326,0.2182 -0.43624,0.4401 0.20092,0.1601 0.1872,-0.0214 0.72702,-0.73366 0.16938,-0.10968 q 0.20882,-0.0497 0.3738,-0.16266 l 0.1454,-0.1467 0.0361,-0.20834 Q 382,741.2014 382.44815,740.6786 l 0.0835,-0.1879 -0.10089,0.0368 q -0.15799,0.14913 -0.26569,0.28869 l -0.0324,-0.0623 0.14542,-0.1467 q 0.0877,-0.1852 0.0949,-0.4239 l 0.0794,-0.1907 -7e-4,0.2022 1.16324,-1.17386 0.05,-0.10138 -0.13655,-0.0127 0.9266,-0.93506 q 0.18254,-0.0913 0.3846,-0.16015 l 0.72705,-0.73371 q 0.0246,-0.0156 -0.35522,-0.1095 l -0.19133,0.053 -0.14464,0.1454 q -0.22066,0.0359 -0.44724,0.0631 l -0.1932,0.0763 -1.01789,1.0271 q -0.0304,0.2196 -0.0968,0.4164 -0.1478,0.1452 -0.28603,0.2965 l -0.0356,0.2163 -1.59952,1.614 0.0362,-0.0599 1.30867,-1.32057 0.067,-0.18799 -0.0379,-0.25964 0.2908,-0.29346 0.10028,-0.17354 2.79374,-3.0083 z"
       id="path1" />
  </g>
</svg>
