<svg
   width="730"
   height="1200"
   version="1.1"
   xmlns="http://www.w3.org/2000/svg"
   xmlns:svg="http://www.w3.org/2000/svg">
   <g
     id="Archetype"
     transform="scale(1.5466102,1.494396)">
     <path
       fill="#000000"
       fill-opacity="1"
       d="M 14,412 C 3,301 83,200 194,187 189,153 169,44 172,30 c 28,-9 50,-12 64,-30 14,18 37,21 64,30 4,14 -17,123 -22,157 112,13 191,114 180,225 C 355,335 293,251 236,138 179,251 117,335 14,412 Z M 236,165 C 178,281 98,370 0,438 l 18,39 9,248 181,78 -23,-76 -10,-230 -103,-15 6,-39 27,-23 107,24 -8,143 32,19 33,-19 -8,-143 107,-24 26,23 7,39 -104,15 -9,230 -24,76 181,-78 9,-248 18,-39 C 375,370 294,281 236,165 Z"
       id="path1"/>
   </g>
</svg>
